;*************************************************************
;*************************************************************
;**                                                         **
;**               PDF of binomial distribution              **
;**                                                         **
;*************************************************************
;*************************************************************
In: FL_SPCRES=0 FL_CPXRES=0 SD=0 RMODE=0 IM=2compl SS=4 WS=64
Func: fnBinomialP



;=======================================
; binomialP(Long Integer) --> Real
;=======================================
In:  AM=DEG FL_ASLIFT=0 FL_CPXRES=0 RP=Real:"0.5" RN=LonI:"5" RX=LonI:"0"
Out: EC=0 FL_CPXRES=0 FL_ASLIFT=1 RL=LonI:"0" RX=Real:"0.03125"

In:  AM=DEG FL_ASLIFT=0 FL_CPXRES=0 RP=Real:"0.5" RN=LonI:"5" RX=LonI:"1"
Out: EC=0 FL_CPXRES=0 FL_ASLIFT=1 RL=LonI:"1" RX=Real:"0.15625"

In:  AM=DEG FL_ASLIFT=0 FL_CPXRES=0 RP=Real:"0.5" RN=LonI:"5" RX=LonI:"2"
Out: EC=0 FL_CPXRES=0 FL_ASLIFT=1 RL=LonI:"2" RX=Real:"0.3125"

In:  AM=DEG FL_ASLIFT=0 FL_CPXRES=0 RP=Real:"0.5" RN=LonI:"5" RX=LonI:"3"
Out: EC=0 FL_CPXRES=0 FL_ASLIFT=1 RL=LonI:"3" RX=Real:"0.3125"


In:  AM=DEG FL_ASLIFT=0 FL_CPXRES=0 RP=Real:"0.5" RN=LonI:"20" RX=LonI:"0"
Out: EC=0 FL_CPXRES=0 FL_ASLIFT=1 RL=LonI:"0" RX=Real:"9.5367431640625e-7"

In:  AM=DEG FL_ASLIFT=0 FL_CPXRES=0 RP=Real:"0.5" RN=LonI:"20" RX=LonI:"5"
Out: EC=0 FL_CPXRES=0 FL_ASLIFT=1 RL=LonI:"5" RX=Real:"0.0147857666015625"

In:  AM=DEG FL_ASLIFT=0 FL_CPXRES=0 RP=Real:"0.5" RN=LonI:"20" RX=LonI:"8"
Out: EC=0 FL_CPXRES=0 FL_ASLIFT=1 RL=LonI:"8" RX=Real:"0.1201343536376953125"

In:  AM=DEG FL_ASLIFT=0 FL_CPXRES=0 RP=Real:"0.5" RN=LonI:"20" RX=LonI:"10"
Out: EC=0 FL_CPXRES=0 FL_ASLIFT=1 RL=LonI:"10" RX=Real:"0.176197052001953125"

In:  AM=DEG FL_ASLIFT=0 FL_CPXRES=0 RP=Real:"0.5" RN=LonI:"20" RX=LonI:"13"
Out: EC=0 FL_CPXRES=0 FL_ASLIFT=1 RL=LonI:"13" RX=Real:"0.0739288330078125"


In:  AM=DEG FL_ASLIFT=0 FL_CPXRES=0 RP=Real:"0.1" RN=LonI:"20" RX=LonI:"0"
Out: EC=0 FL_CPXRES=0 FL_ASLIFT=1 RL=LonI:"0" RX=Real:"0.12157665459056928801"

In:  AM=DEG FL_ASLIFT=0 FL_CPXRES=0 RP=Real:"0.1" RN=LonI:"20" RX=LonI:"1"
Out: EC=0 FL_CPXRES=0 FL_ASLIFT=1 RL=LonI:"1" RX=Real:"0.2701703435345984178"

In:  AM=DEG FL_ASLIFT=0 FL_CPXRES=0 RP=Real:"0.1" RN=LonI:"20" RX=LonI:"2"
Out: EC=0 FL_CPXRES=0 FL_ASLIFT=1 RL=LonI:"2" RX=Real:"0.2851798070642983299"

In:  AM=DEG FL_ASLIFT=0 FL_CPXRES=0 RP=Real:"0.1" RN=LonI:"20" RX=LonI:"3"
Out: EC=0 FL_CPXRES=0 FL_ASLIFT=1 RL=LonI:"3" RX=Real:"0.1901198713761988866"



;=======================================
; binomialP(Time) --> Error24
;=======================================



;=======================================
; binomialP(Date) --> Error24
;=======================================



;=======================================
; binomialP(String) --> Error24
;=======================================
In:  FL_ASLIFT=0 RX=Stri:"String test"
Out: EC=24 FL_ASLIFT=0 RX=Stri:"String test"



;=======================================
; binomialP(Real Matrix) --> Error24
;=======================================



;=======================================
; binomialP(Complex Matrix) --> Error24
;=======================================



;=======================================
; binomialP(Short Integer) --> Error24
;=======================================



;=======================================
; binomialP(Real) --> Real
;=======================================
In:  AM=DEG FL_ASLIFT=0 FL_CPXRES=0 RP=Real:"0.5" RN=Real:"5" RX=Real:"0"
Out: EC=0 FL_CPXRES=0 FL_ASLIFT=1 RL=Real:"0" RX=Real:"0.03125"

In:  AM=DEG FL_ASLIFT=0 FL_CPXRES=0 RP=Real:"0.5" RN=Real:"5" RX=Real:"1"
Out: EC=0 FL_CPXRES=0 FL_ASLIFT=1 RL=Real:"1" RX=Real:"0.15625"

In:  AM=DEG FL_ASLIFT=0 FL_CPXRES=0 RP=Real:"0.5" RN=Real:"5" RX=Real:"2"
Out: EC=0 FL_CPXRES=0 FL_ASLIFT=1 RL=Real:"2" RX=Real:"0.3125"

In:  AM=DEG FL_ASLIFT=0 FL_CPXRES=0 RP=Real:"0.5" RN=Real:"5" RX=Real:"3"
Out: EC=0 FL_CPXRES=0 FL_ASLIFT=1 RL=Real:"3" RX=Real:"0.3125"


In:  AM=DEG FL_ASLIFT=0 FL_CPXRES=0 RP=Real:"0.5" RN=Real:"20" RX=Real:"0"
Out: EC=0 FL_CPXRES=0 FL_ASLIFT=1 RL=Real:"0" RX=Real:"9.5367431640625e-7"

In:  AM=DEG FL_ASLIFT=0 FL_CPXRES=0 RP=Real:"0.5" RN=Real:"20" RX=Real:"5"
Out: EC=0 FL_CPXRES=0 FL_ASLIFT=1 RL=Real:"5" RX=Real:"0.0147857666015625"

In:  AM=DEG FL_ASLIFT=0 FL_CPXRES=0 RP=Real:"0.5" RN=Real:"20" RX=Real:"8"
Out: EC=0 FL_CPXRES=0 FL_ASLIFT=1 RL=Real:"8" RX=Real:"0.1201343536376953125"

In:  AM=DEG FL_ASLIFT=0 FL_CPXRES=0 RP=Real:"0.5" RN=Real:"20" RX=Real:"10"
Out: EC=0 FL_CPXRES=0 FL_ASLIFT=1 RL=Real:"10" RX=Real:"0.176197052001953125"

In:  AM=DEG FL_ASLIFT=0 FL_CPXRES=0 RP=Real:"0.5" RN=Real:"20" RX=Real:"13"
Out: EC=0 FL_CPXRES=0 FL_ASLIFT=1 RL=Real:"13" RX=Real:"0.0739288330078125"


In:  AM=DEG FL_ASLIFT=0 FL_CPXRES=0 RP=Real:"0.1" RN=Real:"20" RX=Real:"0"
Out: EC=0 FL_CPXRES=0 FL_ASLIFT=1 RL=Real:"0" RX=Real:"0.12157665459056928801"

In:  AM=DEG FL_ASLIFT=0 FL_CPXRES=0 RP=Real:"0.1" RN=Real:"20" RX=Real:"1"
Out: EC=0 FL_CPXRES=0 FL_ASLIFT=1 RL=Real:"1" RX=Real:"0.2701703435345984178"

In:  AM=DEG FL_ASLIFT=0 FL_CPXRES=0 RP=Real:"0.1" RN=Real:"20" RX=Real:"2"
Out: EC=0 FL_CPXRES=0 FL_ASLIFT=1 RL=Real:"2" RX=Real:"0.2851798070642983299"

In:  AM=DEG FL_ASLIFT=0 FL_CPXRES=0 RP=Real:"0.1" RN=Real:"20" RX=Real:"3"
Out: EC=0 FL_CPXRES=0 FL_ASLIFT=1 RL=Real:"3" RX=Real:"0.1901198713761988866"



;=======================================
; binomialP(Complex) --> Error24
;=======================================
