;*************************************************************
;*************************************************************
;**                                                         **
;**      Incomplete elliptic integral of the 1st kind       **
;**                                                         **
;*************************************************************
;*************************************************************
In: FL_SPCRES=0 FL_CPXRES=0 SD=0 RMODE=0 IM=2compl SS=4 WS=64
Func: fnEllipticFphi



;=======================================
; F(Long Integer) --> Real
;=======================================



;=======================================
; F(Time) --> Error24
;=======================================



;=======================================
; F(Date) --> Error24
;=======================================



;=======================================
; F(String) --> Error24
;=======================================
In:  FL_ASLIFT=0 RX=Stri:"String test"
Out: EC=24 FL_ASLIFT=0 RX=Stri:"String test"



;=======================================
; F(Real Matrix) --> Error24
;=======================================



;=======================================
; F(Complex Matrix) --> Error24
;=======================================



;=======================================
; F(Short Integer) --> Error24
;=======================================



;=======================================
; F(Real, Real) --> Real
; F(Real, Real) --> Complex
;=======================================
In:  AM=DEG FL_ASLIFT=0 FL_CPXRES=0 RY=Real:"0" RX=Real:"-1"
Out: EC=0 FL_CPXRES=0 FL_ASLIFT=1 RL=Real:"-1" RX=Real:"-1"

In:  AM=DEG FL_ASLIFT=0 FL_CPXRES=0 RY=Real:"0" RX=Real:"0"
Out: EC=0 FL_CPXRES=0 FL_ASLIFT=1 RL=Real:"0" RX=Real:"0"

In:  AM=DEG FL_ASLIFT=0 FL_CPXRES=0 RY=Real:"0" RX=Real:"0.5"
Out: EC=0 FL_CPXRES=0 FL_ASLIFT=1 RL=Real:"0.5" RX=Real:"0.5"

In:  AM=DEG FL_ASLIFT=0 FL_CPXRES=0 RY=Real:"0" RX=Real:"1"
Out: EC=0 FL_CPXRES=0 FL_ASLIFT=1 RL=Real:"1" RX=Real:"1"

In:  AM=DEG FL_ASLIFT=0 FL_CPXRES=0 RY=Real:"0" RX=Real:"1.5"
Out: EC=0 FL_CPXRES=0 FL_ASLIFT=1 RL=Real:"1.5" RX=Real:"1.5"

In:  AM=DEG FL_ASLIFT=0 FL_CPXRES=0 RY=Real:"0" RX=Real:"2"
Out: EC=0 FL_CPXRES=0 FL_ASLIFT=1 RL=Real:"2" RX=Real:"2"

In:  AM=DEG FL_ASLIFT=0 FL_CPXRES=0 RY=Real:"0" RX=Real:"3"
Out: EC=0 FL_CPXRES=0 FL_ASLIFT=1 RL=Real:"3" RX=Real:"3"

In:  AM=DEG FL_ASLIFT=0 FL_CPXRES=0 RY=Real:"0" RX=Real:"5"
Out: EC=0 FL_CPXRES=0 FL_ASLIFT=1 RL=Real:"5" RX=Real:"5"


In:  AM=DEG FL_ASLIFT=0 FL_CPXRES=0 RY=Real:"0.5" RX=Real:"-1"
Out: EC=0 FL_CPXRES=0 FL_ASLIFT=1 RL=Real:"-1" RX=Real:"-1.083216772845168750444132451565315"

In:  AM=DEG FL_ASLIFT=0 FL_CPXRES=0 RY=Real:"0.5" RX=Real:"0"
Out: EC=0 FL_CPXRES=0 FL_ASLIFT=1 RL=Real:"0" RX=Real:"0"

In:  AM=DEG FL_ASLIFT=0 FL_CPXRES=0 RY=Real:"0.5" RX=Real:"0.5"
Out: EC=0 FL_CPXRES=0 FL_ASLIFT=1 RL=Real:"0.5" RX=Real:"0.5104671356280047563361040911115799"

In:  AM=DEG FL_ASLIFT=0 FL_CPXRES=0 RY=Real:"0.5" RX=Real:"1"
Out: EC=0 FL_CPXRES=0 FL_ASLIFT=1 RL=Real:"1" RX=Real:"1.083216772845168750444132451565315"

In:  AM=DEG FL_ASLIFT=0 FL_CPXRES=0 RY=Real:"0.5" RX=Real:"1.5"
Out: EC=0 FL_CPXRES=0 FL_ASLIFT=1 RL=Real:"1.5" RX=Real:"1.754036916866746320761317134387405"

In:  AM=DEG FL_ASLIFT=0 FL_CPXRES=0 RY=Real:"0.5" RX=Real:"2"
Out: EC=0 FL_CPXRES=0 FL_ASLIFT=1 RL=Real:"2" RX=Real:"2.444382636061118779921414687605085"

In:  AM=DEG FL_ASLIFT=0 FL_CPXRES=0 RY=Real:"0.5" RX=Real:"3"
Out: EC=0 FL_CPXRES=0 FL_ASLIFT=1 RL=Real:"3" RX=Real:"3.566320024680764670711428708012803"

In:  AM=DEG FL_ASLIFT=0 FL_CPXRES=0 RY=Real:"0.5" RX=Real:"5"
Out: EC=0 FL_CPXRES=0 FL_ASLIFT=1 RL=Real:"5" RX=Real:"5.963643375085341798248042285522716"


In:  AM=DEG FL_ASLIFT=0 FL_CPXRES=0 RY=Real:"1" RX=Real:"-1"
Out: EC=0 FL_CPXRES=0 FL_ASLIFT=1 RL=Real:"-1" RX=Real:"-1.226191170883517070813060967471907"

In:  AM=DEG FL_ASLIFT=0 FL_CPXRES=0 RY=Real:"1" RX=Real:"0"
Out: EC=0 FL_CPXRES=0 FL_ASLIFT=1 RL=Real:"0" RX=Real:"0"

In:  AM=DEG FL_ASLIFT=0 FL_CPXRES=0 RY=Real:"1" RX=Real:"0.5"
Out: EC=0 FL_CPXRES=0 FL_ASLIFT=1 RL=Real:"0.5" RX=Real:"0.5222381032784403301898871449364483"

In:  AM=DEG FL_ASLIFT=0 FL_CPXRES=0 RY=Real:"1" RX=Real:"1"
Out: EC=0 FL_CPXRES=0 FL_ASLIFT=1 RL=Real:"1" RX=Real:"1.226191170883517070813060967471907"

In:  AM=DEG FL_ASLIFT=0 FL_CPXRES=0 RY=Real:"1" RX=Real:"1.5"
Out: EC=0 FL_CPXRES=0 FL_ASLIFT=1 RL=Real:"1.5" RX=Real:"3.340677542798311003320812669037689"


In:  AM=DEG FL_ASLIFT=0 FL_CPXRES=1 RY=Real:"2" RX=Real:"-1"
Out: EC=0 FL_CPXRES=1 FL_ASLIFT=1 RL=Real:"-1" RX=Cplx:"-1.311028777146059905232419794945560i+0.6571634186486562426153981544474528"

In:  AM=DEG FL_ASLIFT=0 FL_CPXRES=0 RY=Real:"2" RX=Real:"0"
Out: EC=0 FL_CPXRES=0 FL_ASLIFT=1 RL=Real:"0" RX=Real:"0"

In:  AM=DEG FL_ASLIFT=0 FL_CPXRES=0 RY=Real:"2" RX=Real:"0.5"
Out: EC=0 FL_CPXRES=0 FL_ASLIFT=1 RL=Real:"0.5" RX=Real:"0.5513588790796798141288841186871907"

In:  AM=DEG FL_ASLIFT=0 FL_CPXRES=0 RY=Real:"2" RX=Real:"1"
Out: EC=1 FL_CPXRES=0 FL_ASLIFT=0 RY=Real:"2" RX=Real:"1"

In:  AM=DEG FL_ASLIFT=0 FL_CPXRES=1 RY=Real:"2" RX=Real:"1"
Out: EC=0 FL_CPXRES=1 FL_ASLIFT=1 RL=Real:"1" RX=Cplx:"1.311028777146059905232419794945560i-0.6571634186486562426153981544474528"

In:  AM=DEG FL_ASLIFT=0 FL_CPXRES=1 RY=Real:"2" RX=Real:"1.5"
Out: EC=0 FL_CPXRES=1 FL_ASLIFT=1 RL=Real:"1.5" RX=Cplx:"1.311028777146059905232419794945560i-1.240113753497964927225786662411091"

In:  AM=DEG FL_ASLIFT=0 FL_CPXRES=1 RY=Real:"2" RX=Real:"2"
Out: EC=0 FL_CPXRES=1 FL_ASLIFT=1 RL=Real:"2" RX=Cplx:"1.311028777146059905232419794945560i-1.770731707669461527022909285896128"

In:  AM=DEG FL_ASLIFT=0 FL_CPXRES=1 RY=Real:"2" RX=Real:"3"
Out: EC=0 FL_CPXRES=1 FL_ASLIFT=1 RL=Real:"3" RX=Cplx:"2.4795051247039532272517878279437506i-2.622057554292119810464839589891119"

In:  AM=DEG FL_ASLIFT=0 FL_CPXRES=1 RY=Real:"2" RX=Real:"5"
Out: EC=0 FL_CPXRES=1 FL_ASLIFT=1 RL=Real:"5" RX=Cplx:"3.9330863314381797156972593848366791i-4.229126481957268729065283401182804"


In:  AM=DEG FL_ASLIFT=0 FL_CPXRES=0 RY=Real:"-1" RX=Real:"-1"
Out: EC=0 FL_CPXRES=0 FL_ASLIFT=1 RL=Real:"-1" RX=Real:"-0.8963937894628945863704745164205975"

In:  AM=DEG FL_ASLIFT=0 FL_CPXRES=0 RY=Real:"-1" RX=Real:"0"
Out: EC=0 FL_CPXRES=0 FL_ASLIFT=1 RL=Real:"0" RX=Real:"0"

In:  AM=DEG FL_ASLIFT=0 FL_CPXRES=0 RY=Real:"-1" RX=Real:"0.5"
Out: EC=0 FL_CPXRES=0 FL_ASLIFT=1 RL=Real:"0.5" RX=Real:"0.4820158835764379993319246175131642"

In:  AM=DEG FL_ASLIFT=0 FL_CPXRES=0 RY=Real:"-1" RX=Real:"1"
Out: EC=0 FL_CPXRES=0 FL_ASLIFT=1 RL=Real:"1" RX=Real:"0.8963937894628945863704745164205975"

In:  AM=DEG FL_ASLIFT=0 FL_CPXRES=0 RY=Real:"-1" RX=Real:"1.5"
Out: EC=0 FL_CPXRES=0 FL_ASLIFT=1 RL=Real:"1.5" RX=Real:"1.260947302648910353238810419099788"

In:  AM=DEG FL_ASLIFT=0 FL_CPXRES=0 RY=Real:"-1" RX=Real:"2"
Out: EC=0 FL_CPXRES=0 FL_ASLIFT=1 RL=Real:"2" RX=Real:"1.619198578066249339931681960607589"

In:  AM=DEG FL_ASLIFT=0 FL_CPXRES=0 RY=Real:"-1" RX=Real:"3"
Out: EC=0 FL_CPXRES=0 FL_ASLIFT=1 RL=Real:"3" RX=Real:"2.480931948466240624340802115644081"

In:  AM=DEG FL_ASLIFT=0 FL_CPXRES=0 RY=Real:"-1" RX=Real:"5"
Out: EC=0 FL_CPXRES=0 FL_ASLIFT=1 RL=Real:"5" RX=Real:"4.137862636546201235100713862337863"



;=======================================
; F(Complex, Real) --> Complex
;=======================================
In:  AM=DEG FL_ASLIFT=0 FL_CPXRES=0 RY=Real:"0" RX=Cplx:"-1i1"
Out: EC=0 FL_CPXRES=1 FL_ASLIFT=1 RL=Cplx:"-1i1" RX=Cplx:"-1i1"

In:  AM=DEG FL_ASLIFT=0 FL_CPXRES=0 RY=Real:"0" RX=Cplx:"0i1"
Out: EC=0 FL_CPXRES=1 FL_ASLIFT=1 RL=Cplx:"0i1" RX=Cplx:"0i1"

In:  AM=DEG FL_ASLIFT=0 FL_CPXRES=0 RY=Real:"0" RX=Cplx:"1i1"
Out: EC=0 FL_CPXRES=1 FL_ASLIFT=1 RL=Cplx:"1i1" RX=Cplx:"1i1"

In:  AM=DEG FL_ASLIFT=0 FL_CPXRES=0 RY=Real:"0" RX=Cplx:"2i1"
Out: EC=0 FL_CPXRES=1 FL_ASLIFT=1 RL=Cplx:"2i1" RX=Cplx:"2i1"

In:  AM=DEG FL_ASLIFT=0 FL_CPXRES=0 RY=Real:"0" RX=Cplx:"-1i-1"
Out: EC=0 FL_CPXRES=1 FL_ASLIFT=1 RL=Cplx:"-1i-1" RX=Cplx:"-1i-1"

In:  AM=DEG FL_ASLIFT=0 FL_CPXRES=0 RY=Real:"0" RX=Cplx:"0i-1"
Out: EC=0 FL_CPXRES=1 FL_ASLIFT=1 RL=Cplx:"0i-1" RX=Cplx:"0i-1"

In:  AM=DEG FL_ASLIFT=0 FL_CPXRES=0 RY=Real:"0" RX=Cplx:"1i-1"
Out: EC=0 FL_CPXRES=1 FL_ASLIFT=1 RL=Cplx:"1i-1" RX=Cplx:"1i-1"


In:  AM=DEG FL_ASLIFT=0 FL_CPXRES=0 RY=Real:"0.5" RX=Cplx:"-1i1"
Out: EC=0 FL_CPXRES=1 FL_ASLIFT=1 RL=Cplx:"-1i1" RX=Cplx:"-0.8042372540597077222314504972487811i1.162738037207778660198845308070525"

In:  AM=DEG FL_ASLIFT=0 FL_CPXRES=0 RY=Real:"0.5" RX=Cplx:"0i1"
Out: EC=0 FL_CPXRES=1 FL_ASLIFT=1 RL=Cplx:"0i1" RX=Cplx:"0i0.9200974303141546982857302712788767"

In:  AM=DEG FL_ASLIFT=0 FL_CPXRES=0 RY=Real:"0.5" RX=Cplx:"1i1"
Out: EC=0 FL_CPXRES=1 FL_ASLIFT=1 RL=Cplx:"1i1" RX=Cplx:"0.8042372540597077222314504972487811i1.162738037207778660198845308070525"

In:  AM=DEG FL_ASLIFT=0 FL_CPXRES=0 RY=Real:"0.5" RX=Cplx:"2i1"
Out: EC=0 FL_CPXRES=1 FL_ASLIFT=1 RL=Cplx:"2i1" RX=Cplx:"2.776164287602828572368650385020120i1.256628248148950943747866443627860"

In:  AM=DEG FL_ASLIFT=0 FL_CPXRES=0 RY=Real:"0.5" RX=Cplx:"-1i-1"
Out: EC=0 FL_CPXRES=1 FL_ASLIFT=1 RL=Cplx:"-1i-1" RX=Cplx:"-0.8042372540597077222314504972487811i-1.162738037207778660198845308070525"

In:  AM=DEG FL_ASLIFT=0 FL_CPXRES=0 RY=Real:"0.5" RX=Cplx:"0i-1"
Out: EC=0 FL_CPXRES=1 FL_ASLIFT=1 RL=Cplx:"0i-1" RX=Cplx:"0i-0.9200974303141546982857302712788767"

In:  AM=DEG FL_ASLIFT=0 FL_CPXRES=0 RY=Real:"0.5" RX=Cplx:"1i-1"
Out: EC=0 FL_CPXRES=1 FL_ASLIFT=1 RL=Cplx:"1i-1" RX=Cplx:"0.8042372540597077222314504972487811i-1.162738037207778660198845308070525"


In:  AM=DEG FL_ASLIFT=0 FL_CPXRES=0 RY=Real:"1" RX=Cplx:"-1i1"
Out: EC=0 FL_CPXRES=1 FL_ASLIFT=1 RL=Cplx:"-1i1" RX=Cplx:"-0.6116945951201936949667574558866289i1.139861445735980654071173315726412"

In:  AM=DEG FL_ASLIFT=0 FL_CPXRES=0 RY=Real:"1" RX=Cplx:"0i1"
Out: EC=0 FL_CPXRES=1 FL_ASLIFT=1 RL=Cplx:"0i1" RX=Cplx:"0i0.8657694832396586242896018461918444"

In:  AM=DEG FL_ASLIFT=0 FL_CPXRES=0 RY=Real:"1" RX=Cplx:"1i1"
Out: EC=0 FL_CPXRES=1 FL_ASLIFT=1 RL=Cplx:"1i1" RX=Cplx:"0.6116945951201936949667574558866289i1.139861445735980654071173315726412"

In:  AM=DEG FL_ASLIFT=0 FL_CPXRES=0 RY=Real:"1" RX=Cplx:"-1i-1"
Out: EC=0 FL_CPXRES=1 FL_ASLIFT=1 RL=Cplx:"-1i-1" RX=Cplx:"-0.6116945951201936949667574558866289i-1.139861445735980654071173315726412"

In:  AM=DEG FL_ASLIFT=0 FL_CPXRES=0 RY=Real:"1" RX=Cplx:"0i-1"
Out: EC=0 FL_CPXRES=1 FL_ASLIFT=1 RL=Cplx:"0i-1" RX=Cplx:"0i-0.8657694832396586242896018461918444"

In:  AM=DEG FL_ASLIFT=0 FL_CPXRES=0 RY=Real:"1" RX=Cplx:"1i-1"
Out: EC=0 FL_CPXRES=1 FL_ASLIFT=1 RL=Cplx:"1i-1" RX=Cplx:"0.6116945951201936949667574558866289i-1.139861445735980654071173315726412"


In:  AM=DEG FL_ASLIFT=0 FL_CPXRES=0 RY=Real:"2" RX=Cplx:"-1i1"
Out: EC=0 FL_CPXRES=1 FL_ASLIFT=1 RL=Cplx:"-1i1" RX=Cplx:"-0.4387004872069538643378565641456154i1.030208042614895442623578455435606"

In:  AM=DEG FL_ASLIFT=0 FL_CPXRES=0 RY=Real:"2" RX=Cplx:"0i1"
Out: EC=0 FL_CPXRES=1 FL_ASLIFT=1 RL=Cplx:"0i1" RX=Cplx:"0i0.7917143756453421022746572708926173"

In:  AM=DEG FL_ASLIFT=0 FL_CPXRES=0 RY=Real:"2" RX=Cplx:"1i1"
Out: EC=0 FL_CPXRES=1 FL_ASLIFT=1 RL=Cplx:"1i1" RX=Cplx:"0.4387004872069538643378565641456154i1.030208042614895442623578455435606"

In:  AM=DEG FL_ASLIFT=0 FL_CPXRES=0 RY=Real:"2" RX=Cplx:"2i1"
Out: EC=0 FL_CPXRES=1 FL_ASLIFT=1 RL=Cplx:"2i1" RX=Cplx:"2.148473515807096220528467059217264i-1.526729076021204088984914261639785"

In:  AM=DEG FL_ASLIFT=0 FL_CPXRES=0 RY=Real:"2" RX=Cplx:"-1i-1"
Out: EC=0 FL_CPXRES=1 FL_ASLIFT=1 RL=Cplx:"-1i-1" RX=Cplx:"-0.4387004872069538643378565641456154i-1.030208042614895442623578455435606"

In:  AM=DEG FL_ASLIFT=0 FL_CPXRES=0 RY=Real:"2" RX=Cplx:"0i-1"
Out: EC=0 FL_CPXRES=1 FL_ASLIFT=1 RL=Cplx:"0i-1" RX=Cplx:"0i-0.7917143756453421022746572708926173"

In:  AM=DEG FL_ASLIFT=0 FL_CPXRES=0 RY=Real:"2" RX=Cplx:"1i-1"
Out: EC=0 FL_CPXRES=1 FL_ASLIFT=1 RL=Cplx:"1i-1" RX=Cplx:"0.4387004872069538643378565641456154i-1.030208042614895442623578455435606"


In:  AM=DEG FL_ASLIFT=0 FL_CPXRES=0 RY=Real:"-1" RX=Cplx:"-1i1"
Out: EC=0 FL_CPXRES=1 FL_ASLIFT=1 RL=Cplx:"-1i1" RX=Cplx:"-0.9962836726475598123016890214926345i0.7004549346785655001368848197932802"

In:  AM=DEG FL_ASLIFT=0 FL_CPXRES=0 RY=Real:"-1" RX=Cplx:"0i1"
Out: EC=0 FL_CPXRES=1 FL_ASLIFT=1 RL=Cplx:"0i1" RX=Cplx:"0.4011000650078700330430266563347945i1.311028777146059905232419794945560"

In:  AM=DEG FL_ASLIFT=0 FL_CPXRES=0 RY=Real:"-1" RX=Cplx:"1i1"
Out: EC=0 FL_CPXRES=1 FL_ASLIFT=1 RL=Cplx:"1i1" RX=Cplx:"0.9962836726475598123016890214926345i0.7004549346785655001368848197932802"

In:  AM=DEG FL_ASLIFT=0 FL_CPXRES=0 RY=Real:"-1" RX=Cplx:"2i1"
Out: EC=0 FL_CPXRES=1 FL_ASLIFT=1 RL=Cplx:"2i1" RX=Cplx:"1.546262919787945807805725290952611i0.6781985593264085510124088149967405"

In:  AM=DEG FL_ASLIFT=0 FL_CPXRES=0 RY=Real:"-1" RX=Cplx:"-1i-1"
Out: EC=0 FL_CPXRES=1 FL_ASLIFT=1 RL=Cplx:"-1i-1" RX=Cplx:"-0.9962836726475598123016890214926345i-0.7004549346785655001368848197932802"

In:  AM=DEG FL_ASLIFT=0 FL_CPXRES=0 RY=Real:"-1" RX=Cplx:"0i-1"
Out: EC=0 FL_CPXRES=1 FL_ASLIFT=1 RL=Cplx:"0i-1" RX=Cplx:"-0.4011000650078700330430266563347945i-1.311028777146059905232419794945560"

In:  AM=DEG FL_ASLIFT=0 FL_CPXRES=0 RY=Real:"-1" RX=Cplx:"1i-1"
Out: EC=0 FL_CPXRES=1 FL_ASLIFT=1 RL=Cplx:"1i-1" RX=Cplx:"0.9962836726475598123016890214926345i-0.7004549346785655001368848197932802"
