;*************************************************************
;*************************************************************
;**                                                         **
;**            Elliptic integral of the 3rd kind            **
;**                                                         **
;*************************************************************
;*************************************************************
In: FL_SPCRES=0 FL_CPXRES=0 SD=0 RMODE=0 IM=2compl SS=4 WS=64
Func: fnEllipticPi



;=======================================
; Π(Long Integer) --> Real
;=======================================
In:  AM=DEG FL_ASLIFT=0 FL_CPXRES=0 RY=LonI:"0" RX=LonI:"0"
Out: EC=0 FL_CPXRES=0 FL_ASLIFT=1 RL=LonI:"0" RX=Real:"1.570796326794896619231321691639751"

In:  AM=DEG FL_ASLIFT=0 FL_CPXRES=0 RY=LonI:"0" RX=Real:"0.5"
Out: EC=0 FL_CPXRES=0 FL_ASLIFT=1 RL=Real:"0.5" RX=Real:"2.221441469079183123507940495030347"

In:  AM=DEG FL_ASLIFT=0 FL_CPXRES=0 RY=LonI:"0" RX=LonI:"2"
Out: EC=1 FL_CPXRES=0 FL_ASLIFT=0 RY=LonI:"0" RX=LonI:"2"

In:  AM=DEG FL_ASLIFT=0 FL_CPXRES=1 RY=LonI:"0" RX=LonI:"2"
Out: EC=0 FL_CPXRES=1 FL_ASLIFT=1 RL=LonI:"2" RX=Cplx:"0i-1.570796326794896619231321691639751"


In:  AM=DEG FL_ASLIFT=0 FL_CPXRES=0 RY=Real:"0.5" RX=LonI:"0"
Out: EC=0 FL_CPXRES=0 FL_ASLIFT=1 RL=LonI:"0" RX=Real:"1.854074677301371918433850347195260"

In:  AM=DEG FL_ASLIFT=0 FL_CPXRES=0 RY=Real:"0.5" RX=LonI:"2"
Out: EC=0 FL_CPXRES=0 FL_ASLIFT=1 RL=LonI:"2" RX=Real:"-0.3135446834651840414723072243431374"

In:  AM=DEG FL_ASLIFT=0 FL_CPXRES=0 RY=Real:"0.5" RX=LonI:"-1"
Out: EC=0 FL_CPXRES=0 FL_ASLIFT=1 RL=LonI:"-1" RX=Real:"1.273127366749682458457242076742137"



;=======================================
; Π(Time) --> Error24
;=======================================



;=======================================
; Π(Date) --> Error24
;=======================================



;=======================================
; Π(String) --> Error24
;=======================================
In:  FL_ASLIFT=0 RX=Stri:"String test"
Out: EC=24 FL_ASLIFT=0 RX=Stri:"String test"



;=======================================
; Π(Real Matrix) --> Error24
;=======================================



;=======================================
; Π(Complex Matrix) --> Error24
;=======================================



;=======================================
; Π(Short Integer) --> Error24
;=======================================



;=======================================
; Π(Real) --> Real
;=======================================
In:  AM=DEG FL_ASLIFT=0 FL_CPXRES=0 RY=Real:"0" RX=Real:"0"
Out: EC=0 FL_CPXRES=0 FL_ASLIFT=1 RL=Real:"0" RX=Real:"1.570796326794896619231321691639751"

In:  AM=DEG FL_ASLIFT=0 FL_CPXRES=0 RY=Real:"0" RX=Real:"0.5"
Out: EC=0 FL_CPXRES=0 FL_ASLIFT=1 RL=Real:"0.5" RX=Real:"2.221441469079183123507940495030347"

In:  AM=DEG FL_ASLIFT=0 FL_CPXRES=0 RY=Real:"0" RX=Real:"2"
Out: EC=1 FL_CPXRES=0 FL_ASLIFT=0 RY=Real:"0" RX=Real:"2"

In:  AM=DEG FL_ASLIFT=0 FL_CPXRES=1 RY=Real:"0" RX=Real:"2"
Out: EC=0 FL_CPXRES=1 FL_ASLIFT=1 RL=Real:"2" RX=Cplx:"0i-1.570796326794896619231321691639751"


In:  AM=DEG FL_ASLIFT=0 FL_CPXRES=0 RY=Real:"0.5" RX=Real:"0"
Out: EC=0 FL_CPXRES=0 FL_ASLIFT=1 RL=Real:"0" RX=Real:"1.854074677301371918433850347195260"

In:  AM=DEG FL_ASLIFT=0 FL_CPXRES=0 RY=Real:"0.5" RX=Real:"0.25"
Out: EC=0 FL_CPXRES=0 FL_ASLIFT=1 RL=Real:"0.25" RX=Real:"2.167619360766555959906157571538397"

In:  AM=DEG FL_ASLIFT=0 FL_CPXRES=0 RY=Real:"0.5" RX=Real:"0.5"
Out: EC=0 FL_CPXRES=0 FL_ASLIFT=1 RL=Real:"0.5" RX=Real:"2.701287762095351005040349470677452"

In:  AM=DEG FL_ASLIFT=0 FL_CPXRES=0 RY=Real:"0.5" RX=Real:"0.75"
Out: EC=0 FL_CPXRES=0 FL_ASLIFT=1 RL=Real:"0.75" RX=Real:"3.930614845895350913875751766062302"

In:  AM=DEG FL_ASLIFT=0 FL_CPXRES=0 RY=Real:"0.5" RX=Real:"2"
Out: EC=0 FL_CPXRES=0 FL_ASLIFT=1 RL=Real:"2" RX=Real:"-0.3135446834651840414723072243431374"

In:  AM=DEG FL_ASLIFT=0 FL_CPXRES=0 RY=Real:"0.5" RX=Real:"-1"
Out: EC=0 FL_CPXRES=0 FL_ASLIFT=1 RL=Real:"-1" RX=Real:"1.273127366749682458457242076742137"



;=======================================
; Π(Complex) --> Error24
;=======================================
In:  AM=DEG FL_ASLIFT=0 FL_CPXRES=0 RY=Real:"0.5" RX=Cplx:"0i1"
Out: EC=24 FL_CPXRES=0 FL_ASLIFT=0 RY=Real:"0.5" RX=Cplx:"0i1"
