;*************************************************************
;*************************************************************
;**                                                         **
;**              QF of exponential distribution             **
;**                                                         **
;*************************************************************
;*************************************************************
In: FL_SPCRES=0 FL_CPXRES=0 SD=0 RMODE=0 IM=2compl SS=4 WS=64
Func: fnExponentialI



;=======================================
; ExponI(Long Integer) --> Real
;=======================================
In:  AM=DEG FL_ASLIFT=0 FL_CPXRES=0 RR=LonI:"1" RX=Real:"0.1"
Out: EC=0 FL_CPXRES=0 FL_ASLIFT=1 RL=Real:"0.1" RX=Real:"0.1053605156578263012275009808393128"

In:  AM=DEG FL_ASLIFT=0 FL_CPXRES=0 RR=LonI:"1" RX=Real:"0.5"
Out: EC=0 FL_CPXRES=0 FL_ASLIFT=1 RL=Real:"0.5" RX=Real:"0.6931471805599453094172321214581766"

In:  AM=DEG FL_ASLIFT=0 FL_CPXRES=0 RR=LonI:"1" RX=Real:"0.9"
Out: EC=0 FL_CPXRES=0 FL_ASLIFT=1 RL=Real:"0.9" RX=Real:"2.302585092994045684017991454684364"


In:  AM=DEG FL_ASLIFT=0 FL_CPXRES=0 RR=LonI:"2" RX=Real:"0.1"
Out: EC=0 FL_CPXRES=0 FL_ASLIFT=1 RL=Real:"0.1" RX=Real:"0.05268025782891315061375049041965640"

In:  AM=DEG FL_ASLIFT=0 FL_CPXRES=0 RR=LonI:"2" RX=Real:"0.5"
Out: EC=0 FL_CPXRES=0 FL_ASLIFT=1 RL=Real:"0.5" RX=Real:"0.3465735902799726547086160607290883"

In:  AM=DEG FL_ASLIFT=0 FL_CPXRES=0 RR=LonI:"2" RX=Real:"0.9"
Out: EC=0 FL_CPXRES=0 FL_ASLIFT=1 RL=Real:"0.9" RX=Real:"1.151292546497022842008995727342182"


In:  AM=DEG FL_ASLIFT=0 FL_CPXRES=0 RR=LonI:"3" RX=Real:"0.1"
Out: EC=0 FL_CPXRES=0 FL_ASLIFT=1 RL=Real:"0.1" RX=Real:"0.03512017188594210040916699361310427"

In:  AM=DEG FL_ASLIFT=0 FL_CPXRES=0 RR=LonI:"3" RX=Real:"0.5"
Out: EC=0 FL_CPXRES=0 FL_ASLIFT=1 RL=Real:"0.5" RX=Real:"0.2310490601866484364724107071527255"

In:  AM=DEG FL_ASLIFT=0 FL_CPXRES=0 RR=LonI:"3" RX=Real:"0.9"
Out: EC=0 FL_CPXRES=0 FL_ASLIFT=1 RL=Real:"0.9" RX=Real:"0.7675283643313485613393304848947881"


In:  AM=DEG FL_ASLIFT=0 FL_CPXRES=0 RR=LonI:"5" RX=Real:"0.1"
Out: EC=0 FL_CPXRES=0 FL_ASLIFT=1 RL=Real:"0.1" RX=Real:"0.02107210313156526024550019616786256"

In:  AM=DEG FL_ASLIFT=0 FL_CPXRES=0 RR=LonI:"5" RX=Real:"0.5"
Out: EC=0 FL_CPXRES=0 FL_ASLIFT=1 RL=Real:"0.5" RX=Real:"0.1386294361119890618834464242916353"

In:  AM=DEG FL_ASLIFT=0 FL_CPXRES=0 RR=LonI:"5" RX=Real:"0.9"
Out: EC=0 FL_CPXRES=0 FL_ASLIFT=1 RL=Real:"0.9" RX=Real:"0.4605170185988091368035982909368728"



;=======================================
; ExponI(Time) --> Error24
;=======================================



;=======================================
; ExponI(Date) --> Error24
;=======================================



;=======================================
; ExponI(String) --> Error24
;=======================================
In:  FL_ASLIFT=0 RX=Stri:"String test"
Out: EC=24 FL_ASLIFT=0 RX=Stri:"String test"



;=======================================
; ExponI(Real Matrix) --> Error24
;=======================================



;=======================================
; ExponI(Complex Matrix) --> Error24
;=======================================



;=======================================
; ExponI(Short Integer) --> Error24
;=======================================



;=======================================
; ExponI(Real) --> Real
;=======================================
In:  AM=DEG FL_ASLIFT=0 FL_CPXRES=0 RR=Real:"1" RX=Real:"0.1"
Out: EC=0 FL_CPXRES=0 FL_ASLIFT=1 RL=Real:"0.1" RX=Real:"0.1053605156578263012275009808393128"

In:  AM=DEG FL_ASLIFT=0 FL_CPXRES=0 RR=Real:"1" RX=Real:"0.5"
Out: EC=0 FL_CPXRES=0 FL_ASLIFT=1 RL=Real:"0.5" RX=Real:"0.6931471805599453094172321214581766"

In:  AM=DEG FL_ASLIFT=0 FL_CPXRES=0 RR=Real:"1" RX=Real:"0.9"
Out: EC=0 FL_CPXRES=0 FL_ASLIFT=1 RL=Real:"0.9" RX=Real:"2.302585092994045684017991454684364"


In:  AM=DEG FL_ASLIFT=0 FL_CPXRES=0 RR=Real:"2" RX=Real:"0.1"
Out: EC=0 FL_CPXRES=0 FL_ASLIFT=1 RL=Real:"0.1" RX=Real:"0.05268025782891315061375049041965640"

In:  AM=DEG FL_ASLIFT=0 FL_CPXRES=0 RR=Real:"2" RX=Real:"0.5"
Out: EC=0 FL_CPXRES=0 FL_ASLIFT=1 RL=Real:"0.5" RX=Real:"0.3465735902799726547086160607290883"

In:  AM=DEG FL_ASLIFT=0 FL_CPXRES=0 RR=Real:"2" RX=Real:"0.9"
Out: EC=0 FL_CPXRES=0 FL_ASLIFT=1 RL=Real:"0.9" RX=Real:"1.151292546497022842008995727342182"


In:  AM=DEG FL_ASLIFT=0 FL_CPXRES=0 RR=Real:"3" RX=Real:"0.1"
Out: EC=0 FL_CPXRES=0 FL_ASLIFT=1 RL=Real:"0.1" RX=Real:"0.03512017188594210040916699361310427"

In:  AM=DEG FL_ASLIFT=0 FL_CPXRES=0 RR=Real:"3" RX=Real:"0.5"
Out: EC=0 FL_CPXRES=0 FL_ASLIFT=1 RL=Real:"0.5" RX=Real:"0.2310490601866484364724107071527255"

In:  AM=DEG FL_ASLIFT=0 FL_CPXRES=0 RR=Real:"3" RX=Real:"0.9"
Out: EC=0 FL_CPXRES=0 FL_ASLIFT=1 RL=Real:"0.9" RX=Real:"0.7675283643313485613393304848947881"


In:  AM=DEG FL_ASLIFT=0 FL_CPXRES=0 RR=Real:"5" RX=Real:"0.1"
Out: EC=0 FL_CPXRES=0 FL_ASLIFT=1 RL=Real:"0.1" RX=Real:"0.02107210313156526024550019616786256"

In:  AM=DEG FL_ASLIFT=0 FL_CPXRES=0 RR=Real:"5" RX=Real:"0.5"
Out: EC=0 FL_CPXRES=0 FL_ASLIFT=1 RL=Real:"0.5" RX=Real:"0.1386294361119890618834464242916353"

In:  AM=DEG FL_ASLIFT=0 FL_CPXRES=0 RR=Real:"5" RX=Real:"0.9"
Out: EC=0 FL_CPXRES=0 FL_ASLIFT=1 RL=Real:"0.9" RX=Real:"0.4605170185988091368035982909368728"



;=======================================
; ExponI(Complex) --> Error24
;=======================================
