;*************************************************************
;*************************************************************
;**                                                         **
;**                   QF of F distribution                  **
;**                                                         **
;*************************************************************
;*************************************************************
In: FL_SPCRES=0 FL_CPXRES=0 SD=0 RMODE=0 IM=2compl SS=4 WS=64
Func: fnF_I



;=======================================
; F_I(Long Integer) --> Real
;=======================================
In:  AM=DEG FL_ASLIFT=0 FL_CPXRES=0 RM=LonI:"1" RN=LonI:"1" RX=Real:"0.1"
Out: EC=0 FL_CPXRES=0 FL_ASLIFT=1 RL=Real:"0.1" RX=Real:"0.0250856309369165984240177037424085"

In:  AM=DEG FL_ASLIFT=0 FL_CPXRES=0 RM=LonI:"1" RN=LonI:"1" RX=Real:"0.5"
Out: EC=0 FL_CPXRES=0 FL_ASLIFT=1 RL=Real:"0.5" RX=Real:"1"

In:  AM=DEG FL_ASLIFT=0 FL_CPXRES=0 RM=LonI:"1" RN=LonI:"1" RX=Real:"0.9"
Out: EC=0 FL_CPXRES=0 FL_ASLIFT=1 RL=Real:"0.9" RX=Real:"39.8634581890614009728493716461078"


In:  AM=DEG FL_ASLIFT=0 FL_CPXRES=0 RM=LonI:"2" RN=LonI:"1" RX=Real:"0.1"
Out: EC=0 FL_CPXRES=0 FL_ASLIFT=1 RL=Real:"0.1" RX=Real:"0.117283950617283950617283950617284"

In:  AM=DEG FL_ASLIFT=0 FL_CPXRES=0 RM=LonI:"2" RN=LonI:"1" RX=Real:"0.5"
Out: EC=0 FL_CPXRES=0 FL_ASLIFT=1 RL=Real:"0.5" RX=Real:"1.5"

In:  AM=DEG FL_ASLIFT=0 FL_CPXRES=0 RM=LonI:"2" RN=LonI:"1" RX=Real:"0.9"
Out: EC=0 FL_CPXRES=0 FL_ASLIFT=1 RL=Real:"0.9" RX=Real:"49.5"


In:  AM=DEG FL_ASLIFT=0 FL_CPXRES=0 RM=LonI:"5" RN=LonI:"3" RX=Real:"0.1"
Out: EC=0 FL_CPXRES=0 FL_ASLIFT=1 RL=Real:"0.1" RX=Real:"0.2762829784585821136771738922486974"

In:  AM=DEG FL_ASLIFT=0 FL_CPXRES=0 RM=LonI:"5" RN=LonI:"3" RX=Real:"0.5"
Out: EC=0 FL_CPXRES=0 FL_ASLIFT=1 RL=Real:"0.5" RX=Real:"1.102358118407312776323170094848341"

In:  AM=DEG FL_ASLIFT=0 FL_CPXRES=0 RM=LonI:"5" RN=LonI:"3" RX=Real:"0.9"
Out: EC=0 FL_CPXRES=0 FL_ASLIFT=1 RL=Real:"0.9" RX=Real:"5.309157019496833199054950577095067"



;=======================================
; F_I(Time) --> Error24
;=======================================



;=======================================
; F_I(Date) --> Error24
;=======================================



;=======================================
; F_I(String) --> Error24
;=======================================
In:  FL_ASLIFT=0 RX=Stri:"String test"
Out: EC=24 FL_ASLIFT=0 RX=Stri:"String test"



;=======================================
; F_I(Real Matrix) --> Error24
;=======================================



;=======================================
; F_I(Complex Matrix) --> Error24
;=======================================



;=======================================
; F_I(Short Integer) --> Error24
;=======================================



;=======================================
; F_I(Real) --> Real
;=======================================
In:  AM=DEG FL_ASLIFT=0 FL_CPXRES=0 RM=Real:"1" RN=Real:"1" RX=Real:"0.1"
Out: EC=0 FL_CPXRES=0 FL_ASLIFT=1 RL=Real:"0.1" RX=Real:"0.0250856309369165984240177037424085"

In:  AM=DEG FL_ASLIFT=0 FL_CPXRES=0 RM=Real:"1" RN=Real:"1" RX=Real:"0.5"
Out: EC=0 FL_CPXRES=0 FL_ASLIFT=1 RL=Real:"0.5" RX=Real:"1"

In:  AM=DEG FL_ASLIFT=0 FL_CPXRES=0 RM=Real:"1" RN=Real:"1" RX=Real:"0.9"
Out: EC=0 FL_CPXRES=0 FL_ASLIFT=1 RL=Real:"0.9" RX=Real:"39.8634581890614009728493716461078"


In:  AM=DEG FL_ASLIFT=0 FL_CPXRES=0 RM=Real:"2" RN=Real:"1" RX=Real:"0.1"
Out: EC=0 FL_CPXRES=0 FL_ASLIFT=1 RL=Real:"0.1" RX=Real:"0.117283950617283950617283950617284"

In:  AM=DEG FL_ASLIFT=0 FL_CPXRES=0 RM=Real:"2" RN=Real:"1" RX=Real:"0.5"
Out: EC=0 FL_CPXRES=0 FL_ASLIFT=1 RL=Real:"0.5" RX=Real:"1.5"

In:  AM=DEG FL_ASLIFT=0 FL_CPXRES=0 RM=Real:"2" RN=Real:"1" RX=Real:"0.9"
Out: EC=0 FL_CPXRES=0 FL_ASLIFT=1 RL=Real:"0.9" RX=Real:"49.5"


In:  AM=DEG FL_ASLIFT=0 FL_CPXRES=0 RM=Real:"5" RN=Real:"3" RX=Real:"0.1"
Out: EC=0 FL_CPXRES=0 FL_ASLIFT=1 RL=Real:"0.1" RX=Real:"0.2762829784585821136771738922486974"

In:  AM=DEG FL_ASLIFT=0 FL_CPXRES=0 RM=Real:"5" RN=Real:"3" RX=Real:"0.5"
Out: EC=0 FL_CPXRES=0 FL_ASLIFT=1 RL=Real:"0.5" RX=Real:"1.102358118407312776323170094848341"

In:  AM=DEG FL_ASLIFT=0 FL_CPXRES=0 RM=Real:"5" RN=Real:"3" RX=Real:"0.9"
Out: EC=0 FL_CPXRES=0 FL_ASLIFT=1 RL=Real:"0.9" RX=Real:"5.309157019496833199054950577095067"



;=======================================
; F_I(Complex) --> Error24
;=======================================
