;*************************************************************
;*************************************************************
;**                                                         **
;**                   Cosinus amplitudinis                  **
;**                                                         **
;*************************************************************
;*************************************************************
In: FL_SPCRES=0 FL_CPXRES=0 SD=0 RMODE=0 IM=2compl SS=4 WS=64
Func: fnJacobiCn



;=======================================
; cn(Long Integer) --> Real
;=======================================
In:  AM=DEG FL_ASLIFT=0 FL_CPXRES=0 RY=LonI:"0" RX=LonI:"0"
Out: EC=0 FL_CPXRES=0 FL_ASLIFT=1 RL=LonI:"0" RX=Real:"1"

In:  AM=DEG FL_ASLIFT=0 FL_CPXRES=0 RY=LonI:"0" RX=LonI:"1"
Out: EC=0 FL_CPXRES=0 FL_ASLIFT=1 RL=LonI:"1" RX=Real:"0.5403023058681397174009366074429766"

In:  AM=DEG FL_ASLIFT=0 FL_CPXRES=0 RY=LonI:"0" RX=Real:"1.570796326794896619231321691639751"
Out: EC=0 FL_CPXRES=0 FL_ASLIFT=1 RL=Real:"1.570796326794896619231321691639751" RX=Real:"0"

In:  AM=DEG FL_ASLIFT=0 FL_CPXRES=0 RY=LonI:"0" RX=LonI:"-1"
Out: EC=0 FL_CPXRES=0 FL_ASLIFT=1 RL=LonI:"-1" RX=Real:"0.5403023058681397174009366074429766"


In:  AM=DEG FL_ASLIFT=0 FL_CPXRES=0 RY=Real:"0.25" RX=LonI:"1"
Out: EC=0 FL_CPXRES=0 FL_ASLIFT=1 RL=LonI:"1" RX=Real:"0.5685689980951714899417351630224589"


In:  AM=DEG FL_ASLIFT=0 FL_CPXRES=0 RY=Real:"0.5" RX=LonI:"0"
Out: EC=0 FL_CPXRES=0 FL_ASLIFT=1 RL=LonI:"0" RX=Real:"1"

In:  AM=DEG FL_ASLIFT=0 FL_CPXRES=0 RY=Real:"0.5" RX=LonI:"1"
Out: EC=0 FL_CPXRES=0 FL_ASLIFT=1 RL=LonI:"1" RX=Real:"0.5959765676721406740210598748020054"

In:  AM=DEG FL_ASLIFT=0 FL_CPXRES=0 RY=Real:"0.5" RX=LonI:"-1"
Out: EC=0 FL_CPXRES=0 FL_ASLIFT=1 RL=LonI:"-1" RX=Real:"0.5959765676721406740210598748020054"


In:  AM=DEG FL_ASLIFT=0 FL_CPXRES=0 RY=Real:"0.75" RX=LonI:"1"
Out: EC=0 FL_CPXRES=0 FL_ASLIFT=1 RL=LonI:"1" RX=Real:"0.6224835945492570144678372896518365"


In:  AM=DEG FL_ASLIFT=0 FL_CPXRES=0 RY=LonI:"1" RX=LonI:"0"
Out: EC=0 FL_CPXRES=0 FL_ASLIFT=1 RL=LonI:"0" RX=Real:"1"

In:  AM=DEG FL_ASLIFT=0 FL_CPXRES=0 RY=LonI:"1" RX=LonI:"1"
Out: EC=0 FL_CPXRES=0 FL_ASLIFT=1 RL=LonI:"1" RX=Real:"0.6480542736638853995749773532261503"

In:  AM=DEG FL_ASLIFT=0 FL_CPXRES=0 RY=LonI:"1" RX=LonI:"10"
Out: EC=0 FL_CPXRES=0 FL_ASLIFT=1 RL=LonI:"10" RX=Real:"0.00009079985933781724408012950782047819"

In:  AM=DEG FL_ASLIFT=0 FL_CPXRES=0 RY=LonI:"1" RX=LonI:"-1"
Out: EC=0 FL_CPXRES=0 FL_ASLIFT=1 RL=LonI:"-1" RX=Real:"0.6480542736638853995749773532261503"


In:  AM=DEG FL_ASLIFT=0 FL_CPXRES=0 RY=LonI:"2" RX=LonI:"0"
Out: EC=0 FL_CPXRES=0 FL_ASLIFT=1 RL=LonI:"0" RX=Real:"1"

In:  AM=DEG FL_ASLIFT=0 FL_CPXRES=0 RY=LonI:"2" RX=LonI:"1"
Out: EC=0 FL_CPXRES=0 FL_ASLIFT=1 RL=LonI:"1" RX=Real:"0.7404586623668361431599724725132884"

In:  AM=DEG FL_ASLIFT=0 FL_CPXRES=0 RY=LonI:"2" RX=LonI:"-1"
Out: EC=0 FL_CPXRES=0 FL_ASLIFT=1 RL=LonI:"-1" RX=Real:"0.7404586623668361431599724725132884"


In:  AM=DEG FL_ASLIFT=0 FL_CPXRES=0 RY=LonI:"-1" RX=LonI:"0"
Out: EC=0 FL_CPXRES=0 FL_ASLIFT=1 RL=LonI:"0" RX=Real:"1"

In:  AM=DEG FL_ASLIFT=0 FL_CPXRES=0 RY=LonI:"-1" RX=LonI:"1"
Out: EC=0 FL_CPXRES=0 FL_ASLIFT=1 RL=LonI:"1" RX=Real:"0.4196560133966144834022712121504069"



;=======================================
; cn(Time) --> Error24
;=======================================



;=======================================
; cn(Date) --> Error24
;=======================================



;=======================================
; cn(String) --> Error24
;=======================================
In:  FL_ASLIFT=0 RX=Stri:"String test"
Out: EC=24 FL_ASLIFT=0 RX=Stri:"String test"



;=======================================
; cn(Real Matrix) --> Error24
;=======================================



;=======================================
; cn(Complex Matrix) --> Error24
;=======================================



;=======================================
; cn(Short Integer) --> Error24
;=======================================



;=======================================
; cn(Real) --> Real
;=======================================
In:  AM=DEG FL_ASLIFT=0 FL_CPXRES=0 RY=Real:"0" RX=Real:"0"
Out: EC=0 FL_CPXRES=0 FL_ASLIFT=1 RL=Real:"0" RX=Real:"1"

In:  AM=DEG FL_ASLIFT=0 FL_CPXRES=0 RY=Real:"0" RX=Real:"1"
Out: EC=0 FL_CPXRES=0 FL_ASLIFT=1 RL=Real:"1" RX=Real:"0.5403023058681397174009366074429766"

In:  AM=DEG FL_ASLIFT=0 FL_CPXRES=0 RY=Real:"0" RX=Real:"1.570796326794896619231321691639751"
Out: EC=0 FL_CPXRES=0 FL_ASLIFT=1 RL=Real:"1.570796326794896619231321691639751" RX=Real:"0"

In:  AM=DEG FL_ASLIFT=0 FL_CPXRES=0 RY=Real:"0" RX=Real:"-1"
Out: EC=0 FL_CPXRES=0 FL_ASLIFT=1 RL=Real:"-1" RX=Real:"0.5403023058681397174009366074429766"


In:  AM=DEG FL_ASLIFT=0 FL_CPXRES=0 RY=Real:"0.25" RX=Real:"1"
Out: EC=0 FL_CPXRES=0 FL_ASLIFT=1 RL=Real:"1" RX=Real:"0.5685689980951714899417351630224589"


In:  AM=DEG FL_ASLIFT=0 FL_CPXRES=0 RY=Real:"0.5" RX=Real:"0"
Out: EC=0 FL_CPXRES=0 FL_ASLIFT=1 RL=Real:"0" RX=Real:"1"

In:  AM=DEG FL_ASLIFT=0 FL_CPXRES=0 RY=Real:"0.5" RX=Real:"1"
Out: EC=0 FL_CPXRES=0 FL_ASLIFT=1 RL=Real:"1" RX=Real:"0.5959765676721406740210598748020054"

In:  AM=DEG FL_ASLIFT=0 FL_CPXRES=0 RY=Real:"0.5" RX=Real:"1.854074677301371918433850347195260"
Out: EC=0 FL_CPXRES=0 FL_ASLIFT=1 RL=Real:"1.854074677301371918433850347195260" RX=Real:"0"

In:  AM=DEG FL_ASLIFT=0 FL_CPXRES=0 RY=Real:"0.5" RX=Real:"-1"
Out: EC=0 FL_CPXRES=0 FL_ASLIFT=1 RL=Real:"-1" RX=Real:"0.5959765676721406740210598748020054"


In:  AM=DEG FL_ASLIFT=0 FL_CPXRES=0 RY=Real:"0.75" RX=Real:"1"
Out: EC=0 FL_CPXRES=0 FL_ASLIFT=1 RL=Real:"1" RX=Real:"0.6224835945492570144678372896518365"


In:  AM=DEG FL_ASLIFT=0 FL_CPXRES=0 RY=Real:"1" RX=Real:"0"
Out: EC=0 FL_CPXRES=0 FL_ASLIFT=1 RL=Real:"0" RX=Real:"1"

In:  AM=DEG FL_ASLIFT=0 FL_CPXRES=0 RY=Real:"1" RX=Real:"1"
Out: EC=0 FL_CPXRES=0 FL_ASLIFT=1 RL=Real:"1" RX=Real:"0.6480542736638853995749773532261503"

In:  AM=DEG FL_ASLIFT=0 FL_CPXRES=0 RY=Real:"1" RX=Real:"10"
Out: EC=0 FL_CPXRES=0 FL_ASLIFT=1 RL=Real:"10" RX=Real:"0.00009079985933781724408012950782047819"

In:  AM=DEG FL_ASLIFT=0 FL_CPXRES=0 RY=Real:"1" RX=Real:"-1"
Out: EC=0 FL_CPXRES=0 FL_ASLIFT=1 RL=Real:"-1" RX=Real:"0.6480542736638853995749773532261503"


In:  AM=DEG FL_ASLIFT=0 FL_CPXRES=0 RY=Real:"2" RX=Real:"0"
Out: EC=0 FL_CPXRES=0 FL_ASLIFT=1 RL=Real:"0" RX=Real:"1"

In:  AM=DEG FL_ASLIFT=0 FL_CPXRES=0 RY=Real:"2" RX=Real:"1"
Out: EC=0 FL_CPXRES=0 FL_ASLIFT=1 RL=Real:"1" RX=Real:"0.7404586623668361431599724725132884"

In:  AM=DEG FL_ASLIFT=0 FL_CPXRES=0 RY=Real:"2" RX=Real:"-1"
Out: EC=0 FL_CPXRES=0 FL_ASLIFT=1 RL=Real:"-1" RX=Real:"0.7404586623668361431599724725132884"


In:  AM=DEG FL_ASLIFT=0 FL_CPXRES=0 RY=Real:"-1" RX=Real:"0"
Out: EC=0 FL_CPXRES=0 FL_ASLIFT=1 RL=Real:"0" RX=Real:"1"

In:  AM=DEG FL_ASLIFT=0 FL_CPXRES=0 RY=Real:"-1" RX=Real:"1"
Out: EC=0 FL_CPXRES=0 FL_ASLIFT=1 RL=Real:"1" RX=Real:"0.4196560133966144834022712121504069"



;=======================================
; cn(Complex) --> Complex
;=======================================
In:  AM=DEG FL_ASLIFT=0 FL_CPXRES=0 RY=Real:"0" RX=Cplx:"0i1"
Out: EC=0 FL_CPXRES=1 FL_ASLIFT=1 RL=Cplx:"0i1" RX=Cplx:"1.543080634815243778477905620757062i0"

In:  AM=DEG FL_ASLIFT=0 FL_CPXRES=0 RY=Real:"1" RX=Cplx:"0i1"
Out: EC=0 FL_CPXRES=1 FL_ASLIFT=1 RL=Cplx:"0i1" RX=Cplx:"1.850815717680925617911753241398650i0"

In:  AM=DEG FL_ASLIFT=0 FL_CPXRES=0 RY=Real:"-1" RX=Cplx:"0i1"
Out: EC=0 FL_CPXRES=1 FL_ASLIFT=1 RL=Cplx:"0i1" RX=Cplx:"1.350514283678651258580145574332923i0"
