;*************************************************************
;*************************************************************
;**                                                         **
;**                         log10                           **
;**                                                         **
;*************************************************************
;*************************************************************
In: FL_SPCRES=0 FL_CPXRES=0 SD=0 RMODE=0 IM=2compl SS=4 WS=64
Func: fnLog10


;=======================================
; log2(Long Integer) --> Long integer
;=======================================
In:  AM=DEG FL_ASLIFT=0 FL_CPXRES=0 RX=LonI:"100"
Out: EC=0 FL_CPXRES=0 FL_ASLIFT=1 RL=LonI:"100" RX=Loni:"2"

In:  AM=DEG FL_ASLIFT=0 FL_CPXRES=0 RX=LonI:"1000000"
Out: EC=0 FL_CPXRES=0 FL_ASLIFT=1 RL=LonI:"1000000" RX=Loni:"6"



;=======================================
; log10(Long Integer) --> Real
;=======================================
In:  AM=DEG FL_ASLIFT=0 FL_CPXRES=0 RX=LonI:"5"
Out: EC=0 FL_CPXRES=0 FL_ASLIFT=1 RL=LonI:"5" RX=Real:"0.69897000433601880478626110527550697323181011853789145868957254"

In:  AM=DEG FL_ASLIFT=0 FL_CPXRES=0 RX=LonI:"-5"
Out: EC=1 FL_CPXRES=0 FL_ASLIFT=0 RX=LonI:"-5"

In:  AM=DEG FL_ASLIFT=0 FL_CPXRES=0 FL_SPCRES=1 RX=LonI:"-5"
Out: EC=0 FL_CPXRES=0 FL_ASLIFT=1 RL=LonI:"-5" RX=Real:"NaN"

In:  AM=DEG FL_ASLIFT=0 FL_CPXRES=1 FL_SPCRES=0 RX=LonI:"-5"
Out: EC=0 FL_CPXRES=1 FL_ASLIFT=1 RL=LonI:"-5" RX=Cplx:"0.69897000433601880478626110527550697323181011853789145868957254 i +1.3643763538418413474857836254313557702101274837239253999008547"

In:  AM=DEG FL_ASLIFT=0 FL_CPXRES=0 FL_SPCRES=0 RX=LonI:"0"
Out: EC=1 FL_CPXRES=0 FL_ASLIFT=0 RX=LonI:"0"

In:  AM=DEG FL_ASLIFT=0 FL_CPXRES=0 FL_SPCRES=1 RX=LonI:"0"
Out: EC=0 FL_CPXRES=0 FL_ASLIFT=1 RL=LonI:"0" RX=Real:"-inf"



;=======================================
; log10(Time)
;=======================================



;=======================================
; log10(Date)
;=======================================



;=======================================
; log10(String) --> Error24
;=======================================
In:  FL_ASLIFT=0 RX=Stri:"String test"
Out: EC=24 FL_ASLIFT=0 RX=Stri:"String test"



;=======================================
; log10(Real Matrix)
;=======================================
In:  AM=RAD FL_ASLIFT=0 FL_CPXRES=0 RX=ReMa:"M2,3[1,0.2,3,4,0.5,6]"
Out: EC=0 FL_CPXRES=0 FL_ASLIFT=1 RL=ReMa:"M2,3[1,0.2,3,4,0.5,6]" RX=ReMa:"M2,3[0,-0.698970004336018804786261105275506973232,0.477121254719662437295027903255115309200,0.602059991327962390427477789448986053536,-0.301029995663981195213738894724493026768,0.778151250383643632508766797979608335968]"

In:  AM=RAD FL_ASLIFT=0 FL_CPXRES=0 FL_SPCRES=0 RX=ReMa:"M2,3[-1,-0.2,-3,-4,-0.5,-6]"
Out: EC=1 FL_CPXRES=0 FL_ASLIFT=0 RX=ReMa:"M2,3[-1,-0.2,-3,-4,-0.5,-6]"

In:  AM=RAD FL_ASLIFT=0 FL_CPXRES=0 FL_SPCRES=1 RX=ReMa:"M2,3[-1,-0.2,-3,-4,-0.5,-6]"
Out: EC=0 FL_CPXRES=0 FL_ASLIFT=1 RL=ReMa:"M2,3[-1,-0.2,-3,-4,-0.5,-6]" RX=ReMa:"M2,3[NaN,NaN,NaN,NaN,NaN,NaN]"

In:  AM=RAD FL_ASLIFT=0 FL_CPXRES=1 RX=ReMa:"M2,3[-1,-0.2,-3,-4,-0.5,-6]"
Out: EC=0 FL_CPXRES=1 FL_ASLIFT=1 RL=ReMa:"M2,3[-1,-0.2,-3,-4,-0.5,-6]" RX=CxMa:"M2,3[0i1.36437635384184134748578362543135577021,-0.69897000433601880478626110527550697323i1.36437635384184134748578362543135577021,0.47712125471966243729502790325511530920i1.36437635384184134748578362543135577021,0.60205999132796239042747778944898605354i1.36437635384184134748578362543135577021,-0.301029995663981195213738894724493026768i1.364376353841841347485783625431355770210,0.77815125038364363250876679797960833597i1.36437635384184134748578362543135577021]"



;=======================================
; log10(Complex Matrix)
;=======================================
In:  AM=RAD FL_ASLIFT=0 FL_CPXRES=0 RX=CxMa:"M2,3[-1,0i-1,2i-1,-3i2,4i3,-5i-4]"
Out: EC=0 FL_CPXRES=1 FL_ASLIFT=1 RL=CxMa:"M2,3[-1,0i-1,2i-1,-3i2,4i3,-5i-4]" RX=CxMa:"M2,3[0i1.36437635384184134748578362543135577021,0i-0.682188176920920673742891812715677885105,0.349485002168009402393130552637753486616i-0.201359598136686571038950230193728947254,0.556971676153418384603252578971164215415i1.109010067776387312687167486006844008555,0.698970004336018804786261105275506973232i0.279468980647547531664991352328219990596,0.806391928359867747254705924984090399765i-1.071340085919951568453015249936555759582]"



;=======================================
; log10(Short Integer) --> Error24
;=======================================
In:  FL_ASLIFT=0 FL_CPXRES=0 RX=ShoI:"5#7"
Out: EC=0 FL_CPXRES=0 FL_ASLIFT=1 RX=ShoI:"0#7"



;=======================================
; log10(Real) --> Real
;=======================================
In:  AM=DEG FL_ASLIFT=0 FL_CPXRES=0 FL_SPCRES=0 RX=Real:"0.0001"
Out: EC=0 FL_CPXRES=0 FL_ASLIFT=1 RL=Real:"0.0001" RX=Real:"-4"

In:  AM=GRAD FL_ASLIFT=0 FL_CPXRES=0 RX=Real:"50"
Out: EC=0 FL_CPXRES=0 FL_ASLIFT=1 RL=Real:"50" RX=Real:"1.6989700043360188047862611052755069732318101185378914586895725"

In:  AM=DEG FL_ASLIFT=0 FL_CPXRES=0 RX=Real:"89.99999"
Out: EC=0 FL_CPXRES=0 FL_ASLIFT=1 RL=Real:"89.99999" RX=Real:"1.954242461184379760065074504433369599266577368811228358766214"

In:  FL_ASLIFT=0 FL_CPXRES=0 RX=Real:"5.32564":DMS
Out: EC=0 FL_CPXRES=0 FL_ASLIFT=1 RL=Real:"5.32564":DMS RX=Real:"0.72637180586978936852596576935224006663925974928541803140426852"

In:  FL_ASLIFT=0 FL_CPXRES=0 RX=Real:"-5.32564":GRAD
Out: EC=1 FL_CPXRES=0 FL_ASLIFT=0 RX=Real:"-5.32564":GRAD

In:  FL_ASLIFT=0 FL_CPXRES=1 RX=Real:"-5.32564":GRAD
Out: EC=0 FL_CPXRES=1 FL_ASLIFT=1 RL=Real:"-5.32564":GRAD RX=Cplx:"0.72637180586978936852596576935224006663925974928541803140426852 i +1.3643763538418413474857836254313557702101274837239253999008547"

In:  AM=DEG FL_ASLIFT=0 FL_CPXRES=0 FL_SPCRES=0 RX=Real:"0"
Out: EC=1 FL_CPXRES=0 FL_ASLIFT=0 RX=Real:"0"

In:  AM=DEG FL_ASLIFT=0 FL_CPXRES=0 FL_SPCRES=1 RX=Real:"0"
Out: EC=0 FL_CPXRES=0 FL_ASLIFT=1 RL=Real:"0" RX=Real:"-inf"

In:  AM=DEG FL_ASLIFT=0 FL_CPXRES=0 FL_SPCRES=0 RX=Real:"-5"
Out: EC=1 FL_CPXRES=0 FL_ASLIFT=0 RX=Real:"-5"

In:  AM=DEG FL_ASLIFT=0 FL_CPXRES=0 FL_SPCRES=1 RX=Real:"-5"
Out: EC=0 FL_CPXRES=0 FL_ASLIFT=1 RL=Real:"-5" RX=Real:"NaN"

In:  AM=DEG FL_ASLIFT=0 FL_CPXRES=1 FL_SPCRES=0 RX=Real:"-5"
Out: EC=0 FL_CPXRES=1 FL_ASLIFT=1 RL=Real:"-5" RX=Cplx:"0.69897000433601880478626110527550697323181011853789145868957254 i +1.3643763538418413474857836254313557702101274837239253999008547"

; NaN
In:  FL_ASLIFT=0 FL_CPXRES=0 RX=Real:"NaN":RAD
Out: EC=0 FL_CPXRES=0 FL_ASLIFT=1 RL=Real:"NaN":RAD RX=Real:"NaN"

In:  FL_ASLIFT=0 FL_CPXRES=0 RX=Real:"NaN"
Out: EC=0 FL_CPXRES=0 FL_ASLIFT=1 RL=Real:"NaN" RX=Real:"NaN"

; Infinity
In:  FL_ASLIFT=0 FL_CPXRES=0 FL_SPCRES=1 RX=Real:"inf":DEG
Out: EC=0 FL_CPXRES=0 FL_ASLIFT=1 RL=Real:"inf":DEG RX=Real:"NaN"

In:  FL_ASLIFT=0 FL_CPXRES=0 FL_SPCRES=0 RX=Real:"inf":MULTPI
Out: EC=1 FL_CPXRES=0 FL_ASLIFT=0 RX=Real:"inf":MULTPI

In:  FL_ASLIFT=0 FL_CPXRES=0 FL_SPCRES=1 RX=Real:"inf"
Out: EC=0 FL_CPXRES=0 FL_ASLIFT=1 RL=Real:"inf" RX=Real:"NaN"

In:  FL_ASLIFT=0 FL_CPXRES=0 FL_SPCRES=0 RX=Real:"inf"
Out: EC=1 FL_CPXRES=0 FL_ASLIFT=0 RX=Real:"inf"

In:  FL_ASLIFT=0 FL_CPXRES=0 FL_SPCRES=0 RX=Real:"-inf"
Out: EC=1 FL_CPXRES=0 FL_ASLIFT=0 RX=Real:"-inf"

In:  FL_ASLIFT=0 FL_CPXRES=0 FL_SPCRES=1 RX=Real:"-inf":DMS
Out: EC=0 FL_CPXRES=0 FL_ASLIFT=1 RL=Real:"-inf":DMS RX=Real:"NaN"

In:  FL_ASLIFT=0 FL_CPXRES=0 FL_SPCRES=0 RX=Real:"-inf":MULTPI
Out: EC=1 FL_CPXRES=0 FL_ASLIFT=0 RX=Real:"-inf":MULTPI

In:  FL_ASLIFT=0 FL_CPXRES=0 FL_SPCRES=1 RX=Real:"-inf":RAD
Out: EC=0 FL_CPXRES=0 FL_ASLIFT=1 RL=Real:"-inf":RAD RX=Real:"NaN"



;=======================================
; log10(Complex) --> Complex
;=======================================
In:  AM=DEG FL_ASLIFT=0 FL_CPXRES=0 RX=Cplx:"6.2 i -7.6"
Out: EC=0 FL_CPXRES=1 FL_ASLIFT=1 RL=Cplx:"6.2 i -7.6" RX=Cplx:"0.99158753601890648061434737110297545279044588000774467986464917 i -0.38500272490734797658953300795055732053909377628629710122102587"

In:  AM=DEG FL_ASLIFT=0 FL_CPXRES=0 FL_SPCRES=1 RX=Cplx:"0 i 0"
Out: EC=0 FL_CPXRES=1 FL_ASLIFT=1 RL=Cplx:"0 i 0" RX=Cplx:"-inf i 0"

In:  AM=DEG FL_ASLIFT=0 FL_CPXRES=0 FL_SPCRES=0 RX=Cplx:"0 i 0"
Out: EC=1 FL_CPXRES=0 FL_ASLIFT=0 RX=Cplx:"0 i 0"
