;*************************************************************
;*************************************************************
;**                                                         **
;**                  SHORT INTEGER ^ ...                    **
;**                  ... ^ SHORT INTEGER                    **
;**                                                         **
;*************************************************************
;*************************************************************
In: FL_SPCRES=0 FL_CPXRES=0 SD=0 RMODE=0 IM=2compl SS=4 WS=64
Func: fnPower



;==================================================================
; Short Integer ^ Long Integer      see in power_longInteger.txt
; Short Integer ^ Real              see in power_real.txt
; Short Integer ^ Complex           see in power_complex.txt
; Short Integer ^ Time              see in power_time.txt
; Short Integer ^ Date              see in power_date.txt
; Short Integer ^ String            see in power_string.txt
; Short Integer ^ Real Matrix       see in power_realMatrix.txt
; Short Integer ^ Complex Matrix    see in power_complexMatrix.txt
;==================================================================



;=======================================
; Short Integer ^ Short Integer --> Short Integer
;=======================================
In:  FL_ASLIFT=0 FL_CPXRES=0 RY=ShoI:"25#10" RX=ShoI:"1011#2" ; 25 ^ 11
Out: EC=0 FL_CPXRES=0 FL_ASLIFT=1 RL=ShoI:"1011#2" RX=ShoI:"2384185791015625#10"

In:  FL_ASLIFT=0 FL_CPXRES=0 IM=2COMPL WS=32 FL_OVERFL=0 RY=ShoI:"45247#8" RX=ShoI:"c#16" ;RY=19111
Out: EC=0 FL_CPXRES=0 FL_ASLIFT=1 FL_OVERFL=1 RL=ShoI:"c#16" RX=ShoI:"4354742241#8"

In:  FL_ASLIFT=0 FL_CPXRES=0 IM=2COMPL WS=64 FL_OVERFL=0 RY=ShoI:"45247#8" RX=ShoI:"c#16" ;RY=19111
Out: EC=0 FL_CPXRES=0 FL_ASLIFT=1 FL_OVERFL=1 RL=ShoI:"c#16" RX=ShoI:"75003602344354742241#8"

In:  FL_ASLIFT=0 FL_OVERFL=0 RY=ShoI:"-2#4" RX=ShoI:"10#3"
Out: EC=0 FL_CPXRES=0 FL_ASLIFT=1 FL_OVERFL=0 RL=ShoI:"10#3" RX=ShoI:"-20#4"

In:  FL_ASLIFT=0 FL_OVERFL=0 RY=ShoI:"-2#5" RX=ShoI:"10#4"
Out: EC=0 FL_CPXRES=0 FL_ASLIFT=1 FL_OVERFL=0 RL=ShoI:"10#4" RX=ShoI:"31#5"

In:  FL_ASLIFT=0 FL_OVERFL=0 RY=ShoI:"-2#6" RX=ShoI:"10#5"
Out: EC=0 FL_CPXRES=0 FL_ASLIFT=1 FL_OVERFL=0 RL=ShoI:"10#5" RX=ShoI:"-52#6"

In:  FL_ASLIFT=0 FL_OVERFL=0 RY=ShoI:"1#10" RX=ShoI:"-1#10"
Out: EC=0 FL_CPXRES=0 FL_ASLIFT=1 FL_OVERFL=0 RL=ShoI:"-1#10" RX=ShoI:"1#10"

In:  FL_ASLIFT=0 FL_OVERFL=0 RY=ShoI:"2#10" RX=ShoI:"-1#10"
Out: EC=0 FL_CPXRES=0 FL_ASLIFT=1 FL_OVERFL=0 RL=ShoI:"-1#10" RX=Real:"0.5"



;=======================================
; Short Integer ^ Real --> Real
;=======================================
In:  FL_ASLIFT=0 RY=ShoI:"5#10" RX=Real:"123.456"
Out: EC=0 FL_CPXRES=0 FL_ASLIFT=1 RL=Real:"123.456" RX=Real:"1.9590289562203547661849732382478881082061206314350810594214883e+86"

In:  AM=DEG FL_CPXRES=0 FL_ASLIFT=0 RY=ShoI:"2#3" RX=Real:"123.4":DEG
Out: EC=0 FL_CPXRES=0 FL_ASLIFT=1 RL=Real:"123.4":DEG RX=Real:"14031414845271966722579997222050159552.088081736449456307453811"

In:  AM=DMS FL_CPXRES=0 FL_ASLIFT=0 RY=ShoI:"2#3" RX=Real:"123.4":DEG
Out: EC=0 FL_CPXRES=0 FL_ASLIFT=1 RL=Real:"123.4":DEG RX=Real:"14031414845271966722579997222050159552.088081736449456307453811"

In:  AM=GRAD FL_CPXRES=0 FL_ASLIFT=0 RY=ShoI:"2#3" RX=Real:"123.4":DEG
Out: EC=0 FL_CPXRES=0 FL_ASLIFT=1 RL=Real:"123.4":DEG RX=Real:"14031414845271966722579997222050159552.088081736449456307453811"

In:  AM=RAD FL_CPXRES=0 FL_ASLIFT=0 RY=ShoI:"2#3" RX=Real:"123.4":DEG
Out: EC=0 FL_CPXRES=0 FL_ASLIFT=1 RL=Real:"123.4":DEG RX=Real:"14031414845271966722579997222050159552.088081736449456307453811"

In:  AM=MULTPI FL_CPXRES=0 FL_ASLIFT=0 RY=ShoI:"2#3" RX=Real:"123.4":DEG
Out: EC=0 FL_CPXRES=0 FL_ASLIFT=1 RL=Real:"123.4":DEG RX=Real:"14031414845271966722579997222050159552.088081736449456307453811"

In:  AM=DEG FL_CPXRES=0 FL_ASLIFT=0 RY=ShoI:"2#3" RX=Real:"123.453099":DMS
Out: EC=0 FL_CPXRES=0 FL_ASLIFT=1 RL=Real:"123.453099":DMS RX=Real:"14557468420784632186278091172514191357.60714127587936564875537"

In:  AM=DMS FL_CPXRES=0 FL_ASLIFT=0 RY=ShoI:"2#3" RX=Real:"123.453099":DMS
Out: EC=0 FL_CPXRES=0 FL_ASLIFT=1 RL=Real:"123.453099":DMS RX=Real:"14557468420784632186278091172514191357.60714127587936564875537"

In:  AM=GRAD FL_CPXRES=0 FL_ASLIFT=0 RY=ShoI:"2#3" RX=Real:"123.453099":DMS
Out: EC=0 FL_CPXRES=0 FL_ASLIFT=1 RL=Real:"123.453099":DMS RX=Real:"14557468420784632186278091172514191357.60714127587936564875537"

In:  AM=RAD FL_CPXRES=0 FL_ASLIFT=0 RY=ShoI:"2#3" RX=Real:"123.453099":DMS
Out: EC=0 FL_CPXRES=0 FL_ASLIFT=1 RL=Real:"123.453099":DMS RX=Real:"14557468420784632186278091172514191357.60714127587936564875537"

In:  AM=MULTPI FL_CPXRES=0 FL_ASLIFT=0 RY=ShoI:"2#3" RX=Real:"123.453099":DMS
Out: EC=0 FL_CPXRES=0 FL_ASLIFT=1 RL=Real:"123.453099":DMS RX=Real:"14557468420784632186278091172514191357.60714127587936564875537"

In:  AM=DEG FL_CPXRES=0 FL_ASLIFT=0 RY=ShoI:"2#3" RX=Real:"123.453099":GRAD
Out: EC=0 FL_CPXRES=0 FL_ASLIFT=1 RL=Real:"123.453099":GRAD RX=Real:"14557468420784632186278091172514191357.60714127587936564875537"

In:  AM=DMS FL_CPXRES=0 FL_ASLIFT=0 RY=ShoI:"2#3" RX=Real:"123.453099":GRAD
Out: EC=0 FL_CPXRES=0 FL_ASLIFT=1 RL=Real:"123.453099":GRAD RX=Real:"14557468420784632186278091172514191357.60714127587936564875537"

In:  AM=GRAD FL_CPXRES=0 FL_ASLIFT=0 RY=ShoI:"2#3" RX=Real:"123.453099":GRAD
Out: EC=0 FL_CPXRES=0 FL_ASLIFT=1 RL=Real:"123.453099":GRAD RX=Real:"14557468420784632186278091172514191357.60714127587936564875537"

In:  AM=RAD FL_CPXRES=0 FL_ASLIFT=0 RY=ShoI:"2#3" RX=Real:"123.453099":GRAD
Out: EC=0 FL_CPXRES=0 FL_ASLIFT=1 RL=Real:"123.453099":GRAD RX=Real:"14557468420784632186278091172514191357.60714127587936564875537"

In:  AM=MULTPI FL_CPXRES=0 FL_ASLIFT=0 RY=ShoI:"2#3" RX=Real:"123.453099":GRAD
Out: EC=0 FL_CPXRES=0 FL_ASLIFT=1 RL=Real:"123.453099":GRAD RX=Real:"14557468420784632186278091172514191357.60714127587936564875537"

In:  AM=DEG FL_CPXRES=0 FL_ASLIFT=0 RY=ShoI:"2#3" RX=Real:"3.453099789":RAD
Out: EC=0 FL_CPXRES=0 FL_ASLIFT=1 RL=Real:"3.453099789":RAD RX=Real:"10.951827999657763014974112684628139432600036141997959332555989"

In:  AM=DMS FL_CPXRES=0 FL_ASLIFT=0 RY=ShoI:"2#3" RX=Real:"3.453099789":RAD
Out: EC=0 FL_CPXRES=0 FL_ASLIFT=1 RL=Real:"3.453099789":RAD RX=Real:"10.951827999657763014974112684628139432600036141997959332555989"

In:  AM=GRAD FL_CPXRES=0 FL_ASLIFT=0 RY=ShoI:"2#3" RX=Real:"3.453099789":RAD
Out: EC=0 FL_CPXRES=0 FL_ASLIFT=1 RL=Real:"3.453099789":RAD RX=Real:"10.951827999657763014974112684628139432600036141997959332555989"

In:  AM=RAD FL_CPXRES=0 FL_ASLIFT=0 RY=ShoI:"2#3" RX=Real:"3.453099789":RAD
Out: EC=0 FL_CPXRES=0 FL_ASLIFT=1 RL=Real:"3.453099789":RAD RX=Real:"10.951827999657763014974112684628139432600036141997959332555989"

In:  AM=MULTPI FL_CPXRES=0 FL_ASLIFT=0 RY=ShoI:"2#3" RX=Real:"3.453099789":RAD
Out: EC=0 FL_CPXRES=0 FL_ASLIFT=1 RL=Real:"3.453099789":RAD RX=Real:"10.951827999657763014974112684628139432600036141997959332555989"

In:  AM=DEG FL_CPXRES=0 FL_ASLIFT=0 RY=ShoI:"2#3" RX=Real:"3.453099789":MULTPI
Out: EC=0 FL_CPXRES=0 FL_ASLIFT=1 RL=Real:"3.453099789":MULTPI RX=Real:"10.951827999657763014974112684628139432600036141997959332555989"

In:  AM=DMS FL_CPXRES=0 FL_ASLIFT=0 RY=ShoI:"2#3" RX=Real:"3.453099789":MULTPI
Out: EC=0 FL_CPXRES=0 FL_ASLIFT=1 RL=Real:"3.453099789":MULTPI RX=Real:"10.951827999657763014974112684628139432600036141997959332555989"

In:  AM=GRAD FL_CPXRES=0 FL_ASLIFT=0 RY=ShoI:"2#3" RX=Real:"3.453099789":MULTPI
Out: EC=0 FL_CPXRES=0 FL_ASLIFT=1 RL=Real:"3.453099789":MULTPI RX=Real:"10.951827999657763014974112684628139432600036141997959332555989"

In:  AM=RAD FL_CPXRES=0 FL_ASLIFT=0 RY=ShoI:"2#3" RX=Real:"3.453099789":MULTPI
Out: EC=0 FL_CPXRES=0 FL_ASLIFT=1 RL=Real:"3.453099789":MULTPI RX=Real:"10.951827999657763014974112684628139432600036141997959332555989"

In:  AM=MULTPI FL_CPXRES=0 FL_ASLIFT=0 RY=ShoI:"2#3" RX=Real:"3.453099789":MULTPI
Out: EC=0 FL_CPXRES=0 FL_ASLIFT=1 RL=Real:"3.453099789":MULTPI RX=Real:"10.951827999657763014974112684628139432600036141997959332555989"

;=======================================
; Real ^ Short Integer --> Real
;=======================================
In:  FL_ASLIFT=0 RY=Real:"123.456" RX=ShoI:"5#10"
Out: EC=0 FL_CPXRES=0 FL_ASLIFT=1 RL=ShoI:"5#10" RX=Real:"28678802168.634497644363776"

In:  AM=DEG FL_CPXRES=0 FL_ASLIFT=0 RY=Real:"123.4":DEG RX=ShoI:"2#3"
Out: EC=0 FL_CPXRES=0 FL_ASLIFT=1 RL=ShoI:"2#3" RX=Real:"15227.56"

In:  AM=DMS FL_CPXRES=0 FL_ASLIFT=0 RY=Real:"123.4":DEG RX=ShoI:"2#3"
Out: EC=0 FL_CPXRES=0 FL_ASLIFT=1 RL=ShoI:"2#3" RX=Real:"15227.56"

In:  AM=GRAD FL_CPXRES=0 FL_ASLIFT=0 RY=Real:"123.4":DEG RX=ShoI:"2#3"
Out: EC=0 FL_CPXRES=0 FL_ASLIFT=1 RL=ShoI:"2#3" RX=Real:"15227.56"

In:  AM=RAD FL_CPXRES=0 FL_ASLIFT=0 RY=Real:"123.4":DEG RX=ShoI:"2#3"
Out: EC=0 FL_CPXRES=0 FL_ASLIFT=1 RL=ShoI:"2#3" RX=Real:"15227.56"

In:  AM=MULTPI FL_CPXRES=0 FL_ASLIFT=0 RY=Real:"123.4":DEG RX=ShoI:"2#3"
Out: EC=0 FL_CPXRES=0 FL_ASLIFT=1 RL=ShoI:"2#3" RX=Real:"15227.56"

In:  AM=DEG FL_CPXRES=0 FL_ASLIFT=0 RY=Real:"123.453099":DMS RX=ShoI:"2#3"
Out: EC=0 FL_CPXRES=0 FL_ASLIFT=1 RL=ShoI:"2#3" RX=Real:"15240.667652703801"

In:  AM=DMS FL_CPXRES=0 FL_ASLIFT=0 RY=Real:"123.453099":DMS RX=ShoI:"2#3"
Out: EC=0 FL_CPXRES=0 FL_ASLIFT=1 RL=ShoI:"2#3" RX=Real:"15240.667652703801"

In:  AM=GRAD FL_CPXRES=0 FL_ASLIFT=0 RY=Real:"123.453099":DMS RX=ShoI:"2#3"
Out: EC=0 FL_CPXRES=0 FL_ASLIFT=1 RL=ShoI:"2#3" RX=Real:"15240.667652703801"

In:  AM=RAD FL_CPXRES=0 FL_ASLIFT=0 RY=Real:"123.453099":DMS RX=ShoI:"2#3"
Out: EC=0 FL_CPXRES=0 FL_ASLIFT=1 RL=ShoI:"2#3" RX=Real:"15240.667652703801"

In:  AM=MULTPI FL_CPXRES=0 FL_ASLIFT=0 RY=Real:"123.453099":DMS RX=ShoI:"2#3"
Out: EC=0 FL_CPXRES=0 FL_ASLIFT=1 RL=ShoI:"2#3" RX=Real:"15240.667652703801"

In:  AM=DEG FL_CPXRES=0 FL_ASLIFT=0 RY=Real:"123.453099":GRAD RX=ShoI:"2#3"
Out: EC=0 FL_CPXRES=0 FL_ASLIFT=1 RL=ShoI:"2#3" RX=Real:"15240.667652703801"

In:  AM=DMS FL_CPXRES=0 FL_ASLIFT=0 RY=Real:"123.453099":GRAD RX=ShoI:"2#3"
Out: EC=0 FL_CPXRES=0 FL_ASLIFT=1 RL=ShoI:"2#3" RX=Real:"15240.667652703801"

In:  AM=GRAD FL_CPXRES=0 FL_ASLIFT=0 RY=Real:"123.453099":GRAD RX=ShoI:"2#3"
Out: EC=0 FL_CPXRES=0 FL_ASLIFT=1 RL=ShoI:"2#3" RX=Real:"15240.667652703801"

In:  AM=RAD FL_CPXRES=0 FL_ASLIFT=0 RY=Real:"123.453099":GRAD RX=ShoI:"2#3"
Out: EC=0 FL_CPXRES=0 FL_ASLIFT=1 RL=ShoI:"2#3" RX=Real:"15240.667652703801"

In:  AM=MULTPI FL_CPXRES=0 FL_ASLIFT=0 RY=Real:"123.453099":GRAD RX=ShoI:"2#3"
Out: EC=0 FL_CPXRES=0 FL_ASLIFT=1 RL=ShoI:"2#3" RX=Real:"15240.667652703801"

In:  AM=DEG FL_CPXRES=0 FL_ASLIFT=0 RY=Real:"3.453099789":RAD RX=ShoI:"2#3"
Out: EC=0 FL_CPXRES=0 FL_ASLIFT=1 RL=ShoI:"2#3" RX=Real:"11.923898152791844521"

In:  AM=DMS FL_CPXRES=0 FL_ASLIFT=0 RY=Real:"3.453099789":RAD RX=ShoI:"2#3"
Out: EC=0 FL_CPXRES=0 FL_ASLIFT=1 RL=ShoI:"2#3" RX=Real:"11.923898152791844521"

In:  AM=GRAD FL_CPXRES=0 FL_ASLIFT=0 RY=Real:"3.453099789":RAD RX=ShoI:"2#3"
Out: EC=0 FL_CPXRES=0 FL_ASLIFT=1 RL=ShoI:"2#3" RX=Real:"11.923898152791844521"

In:  AM=RAD FL_CPXRES=0 FL_ASLIFT=0 RY=Real:"3.453099789":RAD RX=ShoI:"2#3"
Out: EC=0 FL_CPXRES=0 FL_ASLIFT=1 RL=ShoI:"2#3" RX=Real:"11.923898152791844521"

In:  AM=MULTPI FL_CPXRES=0 FL_ASLIFT=0 RY=Real:"3.453099789":RAD RX=ShoI:"2#3"
Out: EC=0 FL_CPXRES=0 FL_ASLIFT=1 RL=ShoI:"2#3" RX=Real:"11.923898152791844521"

In:  AM=DEG FL_CPXRES=0 FL_ASLIFT=0 RY=Real:"3.453099789":MULTPI RX=ShoI:"2#3"
Out: EC=0 FL_CPXRES=0 FL_ASLIFT=1 RL=ShoI:"2#3" RX=Real:"11.923898152791844521"

In:  AM=DMS FL_CPXRES=0 FL_ASLIFT=0 RY=Real:"3.453099789":MULTPI RX=ShoI:"2#3"
Out: EC=0 FL_CPXRES=0 FL_ASLIFT=1 RL=ShoI:"2#3" RX=Real:"11.923898152791844521"

In:  AM=GRAD FL_CPXRES=0 FL_ASLIFT=0 RY=Real:"3.453099789":MULTPI RX=ShoI:"2#3"
Out: EC=0 FL_CPXRES=0 FL_ASLIFT=1 RL=ShoI:"2#3" RX=Real:"11.923898152791844521"

In:  AM=RAD FL_CPXRES=0 FL_ASLIFT=0 RY=Real:"3.453099789":MULTPI RX=ShoI:"2#3"
Out: EC=0 FL_CPXRES=0 FL_ASLIFT=1 RL=ShoI:"2#3" RX=Real:"11.923898152791844521"

In:  AM=MULTPI FL_CPXRES=0 FL_ASLIFT=0 RY=Real:"3.453099789":MULTPI RX=ShoI:"2#3"
Out: EC=0 FL_CPXRES=0 FL_ASLIFT=1 RL=ShoI:"2#3" RX=Real:"11.923898152791844521"


;=======================================
; Short Integer ^ Complex --> Complex
;=======================================
In:  FL_ASLIFT=0 RY=ShoI:"4#8" RX=Cplx:"123.456 i -6.78"
Out: EC=0 FL_CPXRES=1 FL_ASLIFT=1 RL=Cplx:"123.456 i -6.78" RX=Cplx:"-2.1270359272913709495732303449788920035031030932498551228616922e+74 i -5.4681528046893919212293733478777332266384627784034876004792665e+72"

;=======================================
; Complex ^ Short Integer --> Complex
;=======================================
In:  FL_ASLIFT=0 FL_CPXRES=0 RY=Cplx:"123.456 i -6.78" RX=ShoI:"4#9"
Out: EC=0 FL_CPXRES=1 FL_ASLIFT=1 RL=ShoI:"4#9" RX=Cplx:"228098165.178415677696 i -50876176.77758472192"
