;*************************************************************
;*************************************************************
;**                                                         **
;**                  REAL MATRIX ^ ...                     **
;**                  ... ^ REAL MATRIX                     **
;**                                                         **
;*************************************************************
;*************************************************************
In: FL_SPCRES=0 FL_CPXRES=0 SD=0 RMODE=0 IM=2compl SS=4 WS=64
Func: fnPower



;==================================================================
; Real Matrix ^ Long Integer  see in power_longInteger.txt
; Real Matrix ^ Real          see in power_real.txt
; Real Matrix ^ Complex       see in power_complex.txt
; Real Matrix ^ Time          see in power_time.txt
; Real Matrix ^ Date          see in power_date.txt
; Real Matrix ^ String        see in power_string.txt
;==================================================================



;=======================================
; Real Matrix ^ Real Matrix
;=======================================



;=======================================
; Real Matrix ^ Complex Matrix
;=======================================

;=======================================
; Complex Matrix ^ Real Matrix
;=======================================



;=======================================
; Real Matrix ^ Short Integer
;=======================================
In:  FL_ASLIFT=0 FL_CPXRES=0 RY=ReMa:"M2,3[0,1,0.2,3,4,0.5]" RX=ShoI:"11#2"
Out: EC=0 FL_CPXRES=0 FL_ASLIFT=1 RL=ShoI:"11#2" RX=ReMa:"M2,3[0,1,0.008,27,64,0.125]"

;=======================================
; Short Integer ^ Real Matrix
;=======================================



;=======================================
; Real Matrix ^ Real
;=======================================
In:  FL_ASLIFT=0 FL_CPXRES=0 RY=ReMa:"M2,3[0,1,0.2,3,4,0.5]" RX=Real:"3"
Out: EC=0 FL_CPXRES=0 FL_ASLIFT=1 RL=Real:"3" RX=ReMa:"M2,3[0,1,0.008,27,64,0.125]"

;=======================================
; Real ^ Real Matrix
;=======================================



;=======================================
; Real Matrix ^ Complex
;=======================================
In:  FL_ASLIFT=0 FL_CPXRES=0 RY=ReMa:"M2,3[-1,1,0.2,3,4,0.5]" RX=Cplx:"0i1"
Out: EC=0 FL_CPXRES=1 FL_ASLIFT=1 RL=Cplx:"0i1" RX=CxMa:"M2,3[0.0432139182637722497744177371717280112757,1,-0.038631969933935426271615330703455837482i-0.9992535068234804595112378291153553635460,0.454832422826609755027565143595042484088i0.890577041667747059074927306565178095103,0.183456974743301676839941236809235104518i0.983027740411243720586164850342728152611,0.769238901363972126578329993661270701441i-0.638961276313634801150032911464701784257]"

;=======================================
; Complex ^ Real Matrix
;=======================================
