;*************************************************************
;*************************************************************
;**                                                         **
;**                      sqrt(1+x^2)                        **
;**                                                         **
;*************************************************************
;*************************************************************
In: FL_SPCRES=0 FL_CPXRES=0 SD=0 RMODE=0 IM=2compl SS=4 WS=64
Func: fnSqrt1Px2



;=======================================
; sqrt(Long Integer) --> Long Integer or Real
;=======================================
In:  AM=DEG FL_ASLIFT=0 FL_CPXRES=0 RX=LonI:"0"
Out: EC=0 FL_CPXRES=0 FL_ASLIFT=1 RL=LonI:"0" RX=Real:"1"

In:  AM=DEG FL_ASLIFT=0 FL_CPXRES=0 RX=LonI:"2"
Out: EC=0 FL_CPXRES=0 FL_ASLIFT=1 RL=LonI:"2" RX=Real:"2.2360679774997896964091736687312762354406183596115257242708972"

In:  AM=DEG FL_ASLIFT=0 FL_CPXRES=0 RX=LonI:"32"
Out: EC=0 FL_CPXRES=0 FL_ASLIFT=1 RL=LonI:"32" RX=Real:"32.015621187164243432441088373109066322602100663105094427646363133"

In:  AM=DEG FL_ASLIFT=0 FL_CPXRES=0 RX=LonI:"-2"
Out: EC=0 FL_CPXRES=0 FL_ASLIFT=1 RL=LonI:"-2" RX=Real:"2.2360679774997896964091736687312762354406183596115257242708972"

In:  AM=DEG FL_ASLIFT=0 FL_CPXRES=0 RX=LonI:"-32"
Out: EC=0 FL_CPXRES=0 FL_ASLIFT=1 RL=LonI:"-32" RX=Real:"32.015621187164243432441088373109066322602100663105094427646363133"



;=======================================
; sqrt(Time)
;=======================================



;=======================================
; sqrt(Date)
;=======================================



;=======================================
; sqrt(String) --> Error24
;=======================================
In:  FL_ASLIFT=0 RX=Stri:"String test"
Out: EC=24 FL_ASLIFT=0 RX=Stri:"String test"



;=======================================
; sqrt(Real Matrix)
;=======================================
In:  AM=RAD FL_ASLIFT=0 FL_CPXRES=0 RX=ReMa:"M2,3[0,-1,2,-3,4,-5]"
Out: EC=0 FL_CPXRES=0 FL_ASLIFT=1 RL=ReMa:"M2,3[0,-1,2,-3,4,-5]" RX=ReMa:"M2,3[1,1.41421356237309504880168872420969807857,2.23606797749978969640917366873127623544,3.16227766016837933199889354443271853372,4.12310562561766054982140985597407702515,5.09901951359278483002822410902278198956]"



;=======================================
; sqrt(Complex Matrix)
;=======================================
In:  AM=RAD FL_ASLIFT=0 FL_CPXRES=0 RX=CxMa:"M2,3[0,0i-1,2i-1,-3i2,4i3,-5i-4]"
Out: EC=0 FL_CPXRES=1 FL_ASLIFT=1 RL=CxMa:"M2,3[0,0i-1,2i-1,-3i2,4i3,-5i-4]" RX=CxMa:"M2,3[1,0,2.19736822693561993207960239048135675709i-0.91017972112445468260871551564493713924,3.11579908410336514259287789390251048783i-1.92566973609167184450654867619485604971,4.08033217283513785839126517751708735715i2.94093703446257368660508352831865765516,5.06117853153673119358876938475845677373i3.95164878602442384983583568342826680486]"



;=======================================
; sqrt(Short Integer) --> Real
;=======================================
In:  FL_ASLIFT=0 FL_CPXRES=0 RX=ShoI:"5#7"
Out: EC=0 FL_CPXRES=0 FL_ASLIFT=1 RL=ShoI:"5#7" RX=Real:"5.0990195135927848300282241090227819895637709460995964075849708044"



;=======================================
; sqrt(Real) --> Real
;=======================================
In:  AM=DEG FL_ASLIFT=0 FL_CPXRES=0 RX=Real:"0.0001"
Out: EC=0 FL_CPXRES=0 FL_ASLIFT=1 RL=Real:"0.0001" RX=Real:"1.0000000049999999875000000624999996093750027343749794921876611328"

In:  AM=GRAD FL_ASLIFT=0 FL_CPXRES=0 RX=Real:"7"
Out: EC=0 FL_CPXRES=0 FL_ASLIFT=1 RL=Real:"7" RX=Real:"7.0710678118654752440084436210484903928483593768847403658833987"

In:  AM=DEG FL_ASLIFT=0 FL_CPXRES=0 RX=Real:"89.99999"
Out: EC=0 FL_CPXRES=0 FL_ASLIFT=1 RL=Real:"89.99999" RX=Real:"90.005545384715601977599855625633765426567175037884575095936036358"

In:  AM=GRAD FL_ASLIFT=0 FL_CPXRES=0 RX=Real:"-7"
Out: EC=0 FL_CPXRES=0 FL_ASLIFT=1 RL=Real:"-7" RX=Real:"7.0710678118654752440084436210484903928483593768847403658833987"

In:  FL_ASLIFT=0 FL_CPXRES=0 RX=Real:"5.32564":DMS
Out: EC=0 FL_CPXRES=0 FL_ASLIFT=1 RL=Real:"5.32564":DMS RX=Real:"5.4187121541561884296369292966920300068522070220149569060748472646"

In:  FL_ASLIFT=0 FL_CPXRES=0 RX=Real:"-5.32564":GRAD
Out: EC=0 FL_CPXRES=0 FL_ASLIFT=1 RL=Real:"-5.32564":GRAD RX=Real:"5.4187121541561884296369292966920300068522070220149569060748472646"

; NaN
In:  FL_ASLIFT=0 FL_CPXRES=0 RX=Real:"NaN":RAD
Out: EC=0 FL_CPXRES=0 FL_ASLIFT=1 RL=Real:"NaN":RAD RX=Real:"NaN"

In:  FL_ASLIFT=0 FL_CPXRES=0 RX=Real:"NaN"
Out: EC=0 FL_CPXRES=0 FL_ASLIFT=1 RL=Real:"NaN" RX=Real:"NaN"

; Infinity
In:  FL_ASLIFT=0 FL_CPXRES=0 FL_SPCRES=1 RX=Real:"inf"
Out: EC=0 FL_CPXRES=0 FL_ASLIFT=1 RL=Real:"inf" RX=Real:"inf"

In:  FL_ASLIFT=0 FL_CPXRES=0 FL_SPCRES=0 RX=Real:"inf"
Out: EC=1 FL_CPXRES=0 FL_ASLIFT=0 RX=Real:"inf"

In:  FL_ASLIFT=0 FL_CPXRES=0 FL_SPCRES=1 RX=Real:"-inf"
Out: EC=0 FL_CPXRES=0 FL_ASLIFT=1 RL=Real:"-inf" RX=Real:"inf"

In:  FL_ASLIFT=0 FL_CPXRES=0 FL_SPCRES=0 RX=Real:"-inf"
Out: EC=1 FL_CPXRES=0 FL_ASLIFT=0 RX=Real:"-inf"

In:  FL_ASLIFT=0 FL_CPXRES=0 FL_SPCRES=1 RX=Real:"inf":DEG
Out: EC=0 FL_CPXRES=0 FL_ASLIFT=1 RL=Real:"inf":DEG RX=Real:"inf"

In:  FL_ASLIFT=0 FL_CPXRES=0 FL_SPCRES=0 RX=Real:"inf":RAD
Out: EC=1 FL_CPXRES=0 FL_ASLIFT=0 RX=Real:"inf":RAD

In:  FL_ASLIFT=0 FL_CPXRES=0 FL_SPCRES=1 RX=Real:"-inf":MULTPI
Out: EC=0 FL_CPXRES=0 FL_ASLIFT=1 RL=Real:"-inf":MULTPI RX=Real:"inf"

In:  FL_ASLIFT=0 FL_CPXRES=0 FL_SPCRES=0 RX=Real:"-inf":GRAD
Out: EC=1 FL_CPXRES=0 FL_ASLIFT=0 RX=Real:"-inf":GRAD



;=======================================
; sqrt(Complex) --> Complex
;=======================================
In:  AM=DEG FL_ASLIFT=0 FL_CPXRES=0 RX=Cplx:"6.2 i -7.6"
Out: EC=0 FL_CPXRES=1 FL_ASLIFT=1 RL=Cplx:"6.2 i -7.6" RX=Cplx:"6.232341717855662370777438544836349495730539849558099354908525973 i -7.560561043211281993534869336994195732754672953021320853709674790"

In:  FL_ASLIFT=0 FL_CPXRES=0 RX=Cplx:"0 i 3"
Out: EC=0 FL_CPXRES=1 FL_ASLIFT=1 RL=Cplx:"0 i 3" RX=Cplx:"0 i 2.828427124746190097603377448419396157139343750753896146353359475"

In:  FL_ASLIFT=0 FL_CPXRES=0 RX=Cplx:"0 i -1"
Out: EC=0 FL_CPXRES=1 FL_ASLIFT=1 RL=Cplx:"0 i -1" RX=Cplx:"0 i 0"

In:  FL_ASLIFT=0 FL_CPXRES=0 FL_SPCRES=1 RX=Cplx:"inf i 0"
Out: EC=0 FL_CPXRES=1 FL_ASLIFT=1 RL=Cplx:"inf i 0" RX=Cplx:"inf i 0"

In:  FL_ASLIFT=0 FL_CPXRES=0 FL_SPCRES=0 RX=Cplx:"inf i inf"
Out: EC=0 FL_CPXRES=1 FL_ASLIFT=1 RL=Cplx:"inf i inf" RX=Cplx:"NaN i NaN"
