;*************************************************************
;*************************************************************
;**                                                         **
;**                 LONG INTEGER - ...                      **
;**                 ... - LONG INTEGER                      **
;**                                                         **
;*************************************************************
;*************************************************************
In: FL_SPCRES=0 FL_CPXRES=0 SD=0 RMODE=0 IM=2compl SS=4 WS=64
Func: fnSubtract



;=======================================
; Long Integer - Long Integer --> Long Integer
;=======================================
In:  WS=64 FL_ASLIFT=0 RY=LonI:"125455431202845619505847489630102030405" RX=LonI:"5424563354566542698521412502251020304050"
Out: EC=0 FL_CPXRES=0 FL_ASLIFT=1 RL=LonI:"5424563354566542698521412502251020304050" RX=LonI:"-5299107923363697079015565012620918273645"



;=======================================
; Long Integer - Time
;=======================================
In:  FL_ASLIFT=0 RY=LonI:"10312626508667457137516243" RX=Time:"123.456"
Out: EC=8 FL_CPXRES=0 FL_ASLIFT=0 RY=LonI:"10312626508667457137516243" RX=Time:"123.456"

In:  FL_ASLIFT=0 RY=LonI:"654321" RX=Time:"123.456"
Out: EC=0 FL_CPXRES=0 FL_ASLIFT=1 RL=Time:"123.456" RX=Time:"2355555476.544"

;=======================================
; Time - Long Integer
;=======================================
In:  FL_ASLIFT=0 FL_CPXRES=0 RY=Time:"123.456" RX=LonI:"348487308896793597384652"
Out: EC=8 FL_CPXRES=0 FL_ASLIFT=0 RY=Time:"123.456" RX=LonI:"348487308896793597384652"

In:  FL_ASLIFT=0 FL_CPXRES=0 RY=Time:"123.456" RX=LonI:"654321"
Out: EC=0 FL_CPXRES=0 FL_ASLIFT=1 RL=LonI:"654321" RX=Time:"-2355555476.544"



;=======================================
; Long Integer - Date
;=======================================

;=======================================
; Date - Long Integer
;=======================================
In:  FL_YMD=1 FL_MDY=0 FL_DMY=0 FL_ASLIFT=0 FL_CPXRES=0 IM=2COMPL RY=Date:"2003.1020" RX=LonI:"12345"
Out: FL_YMD=1 FL_MDY=0 FL_DMY=0 EC=0 FL_CPXRES=0 FL_ASLIFT=1 RL=LonI:"12345" RX=Date:"1970.0101"

In:  FL_YMD=0 FL_MDY=1 FL_DMY=0 FL_ASLIFT=0 FL_CPXRES=0 IM=2COMPL RY=Date:"10.202003" RX=LonI:"12345"
Out: FL_YMD=0 FL_MDY=1 FL_DMY=0 EC=0 FL_CPXRES=0 FL_ASLIFT=1 RL=LonI:"12345" RX=Date:"1.011970"

In:  FL_YMD=0 FL_MDY=0 FL_DMY=1 FL_ASLIFT=0 FL_CPXRES=0 IM=2COMPL RY=Date:"20.102003" RX=LonI:"12345"
Out: FL_YMD=0 FL_MDY=0 FL_DMY=1 EC=0 FL_CPXRES=0 FL_ASLIFT=1 RL=LonI:"12345" RX=Date:"1.011970"

; Julian-Gregorian gap
In:  FL_YMD=1 FL_MDY=0 FL_DMY=0 JG=2299161 FL_ASLIFT=0 FL_CPXRES=0 IM=2COMPL RY=Date:"1582.1015" RX=LonI:"1"
Out: FL_YMD=1 FL_MDY=0 FL_DMY=0 JG=2299161 EC=0 FL_CPXRES=0 FL_ASLIFT=1 RL=LonI:"1" RX=Date:"1582.1004"

In:  FL_YMD=1 FL_MDY=0 FL_DMY=0 JG=2361222 FL_ASLIFT=0 FL_CPXRES=0 IM=2COMPL RY=Date:"1752.0914" RX=LonI:"1"
Out: FL_YMD=1 FL_MDY=0 FL_DMY=0 JG=2361222 EC=0 FL_CPXRES=0 FL_ASLIFT=1 RL=LonI:"1" RX=Date:"1752.0902"

; Leap years
In:  FL_YMD=1 FL_MDY=0 FL_DMY=0 JG=2299161 FL_ASLIFT=0 FL_CPXRES=0 IM=2COMPL RY=Date:"1500.0301" RX=LonI:"1"
Out: FL_YMD=1 FL_MDY=0 FL_DMY=0 JG=2299161 EC=0 FL_CPXRES=0 FL_ASLIFT=1 RL=LonI:"1" RX=Date:"1500.0229"

In:  FL_YMD=1 FL_MDY=0 FL_DMY=0 JG=2299161 FL_ASLIFT=0 FL_CPXRES=0 IM=2COMPL RY=Date:"1700.0301" RX=LonI:"1"
Out: FL_YMD=1 FL_MDY=0 FL_DMY=0 JG=2299161 EC=0 FL_CPXRES=0 FL_ASLIFT=1 RL=LonI:"1" RX=Date:"1700.0228"

In:  FL_YMD=1 FL_MDY=0 FL_DMY=0 JG=2361222 FL_ASLIFT=0 FL_CPXRES=0 IM=2COMPL RY=Date:"1700.0301" RX=LonI:"1"
Out: FL_YMD=1 FL_MDY=0 FL_DMY=0 JG=2361222 EC=0 FL_CPXRES=0 FL_ASLIFT=1 RL=LonI:"1" RX=Date:"1700.0229"

In:  FL_YMD=1 FL_MDY=0 FL_DMY=0 JG=2299161 FL_ASLIFT=0 FL_CPXRES=0 IM=2COMPL RY=Date:"2000.0301" RX=LonI:"1"
Out: FL_YMD=1 FL_MDY=0 FL_DMY=0 JG=2299161 EC=0 FL_CPXRES=0 FL_ASLIFT=1 RL=LonI:"1" RX=Date:"2000.0229"



;=======================================
; Long Integer - String --> Error24
;=======================================
In:  FL_ASLIFT=0 RY=LonI:"12540" RX=Stri:"String test"
Out: EC=24 FL_ASLIFT=0 RX=Stri:"String test"

;=======================================
; String - Long Integer --> String
;=======================================
In:  FL_ASLIFT=0 RY=Stri:"String test " RX=LonI:"-1234"
Out: EC=24 FL_ASLIFT=0 RX=LonI:"-1234"



;=======================================
; Long Integer - Real Matrix
;=======================================
In: FL_ASLIFT=0 FL_CPXRES=0 IM=2COMPL RY=LonI:"7" RX=ReMa:"M2,3[1,2,3,4,5,6]"
Out: EC=0 FL_CPXRES=0 FL_ASLIFT=1 RL=ReMa:"M2,3[1,2,3,4,5,6]" RX=ReMa:"M2,3[6,5,4,3,2,1]"

;=======================================
; Real Matrix - Long Integer
;=======================================
In: FL_ASLIFT=0 FL_CPXRES=0 IM=2COMPL RY=ReMa:"M2,3[1,2,3,4,5,6]" RX=LonI:"7"
Out: EC=0 FL_CPXRES=0 FL_ASLIFT=1 RL=LonI:"7" RX=ReMa:"M2,3[-6,-5,-4,-3,-2,-1]"



;=======================================
; Long Integer - Complex Matrix
;=======================================
In: FL_ASLIFT=0 FL_CPXRES=0 IM=2COMPL RY=LonI:"7" RX=CxMa:"M2,3[1i2,3i4,5i6,7i8,9i10,11i12]"
Out: EC=0 FL_CPXRES=1 FL_ASLIFT=1 RL=CxMa:"M2,3[1i2,3i4,5i6,7i8,9i10,11i12]" RX=CxMa:"M2,3[6i-2,4i-4,2i-6,0i-8,-2i-10,-4i-12]"

;=======================================
; Complex Matrix - Long Integer
;=======================================
In: FL_ASLIFT=0 FL_CPXRES=0 IM=2COMPL RY=CxMa:"M2,3[1i2,3i4,5i6,7i8,9i10,11i12]" RX=LonI:"7"
Out: EC=0 FL_CPXRES=1 FL_ASLIFT=1 RL=LonI:"7" RX=CxMa:"M2,3[-6i2,-4i4,-2i6,0i8,2i10,4i12]"



;=======================================
; Long Integer - Short Integer --> Long Integer
;=======================================
In:  FL_ASLIFT=0 FL_CPXRES=0 IM=2COMPL RY=LonI:"123456" RX=ShoI:"45247#8" ;RX=19111
Out: EC=0 FL_CPXRES=0 FL_ASLIFT=1 RL=ShoI:"45247#8" RX=LonI:"104345"

;=======================================
; Short Integer - Long Integer --> Long Integer
;=======================================
In:  FL_ASLIFT=0 FL_CPXRES=0 IM=2COMPL RY=ShoI:"45247#8" RX=LonI:"123456" ;RY=19111
Out: EC=0 FL_CPXRES=0 FL_ASLIFT=1 RL=LonI:"123456" RX=LonI:"-104345"



;=======================================
; Long Integer - Real --> Real
;=======================================
In:  FL_ASLIFT=0 RY=LonI:"37125455431202845695058474896301" RX=Real:"123.456"
Out: EC=0 FL_CPXRES=0 FL_ASLIFT=1 RL=Real:"123.456" RX=Real:"37125455431202845695058474896177.544"

; Correct rounding test
In:  FL_ASLIFT=0 RY=LonI:"-10000000000000000000000000000004567" RX=Real:"1000000000000000000000000000000456.0"
Out: EC=0 FL_CPXRES=0 FL_ASLIFT=1 RL=Real:"1000000000000000000000000000000456.0" RX=Real:"-11000000000000000000000000000005023.0"

In:  AM=DEG FL_CPXRES=0 FL_ASLIFT=0 RY=LonI:"2" RX=Real:"123.4":DEG
Out: EC=0 FL_CPXRES=0 FL_ASLIFT=1 RL=Real:"123.4":DEG RX=Real:"-121.4":DEG

In:  AM=DMS FL_CPXRES=0 FL_ASLIFT=0 RY=LonI:"2" RX=Real:"123.4":DEG
Out: EC=0 FL_CPXRES=0 FL_ASLIFT=1 RL=Real:"123.4":DEG RX=Real:"-121.4":DMS

In:  AM=GRAD FL_CPXRES=0 FL_ASLIFT=0 RY=LonI:"2" RX=Real:"123.4":DEG
Out: EC=0 FL_CPXRES=0 FL_ASLIFT=1 RL=Real:"123.4":DEG RX=Real:"-135.11111111111111111111111111111111111111111111111111111111111":GRAD

In:  AM=RAD FL_CPXRES=0 FL_ASLIFT=0 RY=LonI:"2" RX=Real:"123.4":DEG
Out: EC=0 FL_CPXRES=0 FL_ASLIFT=1 RL=Real:"123.4":DEG RX=Real:"-0.1537362969610026979238344083149480883885039104604892128239342":RAD

In:  AM=MULTPI FL_CPXRES=0 FL_ASLIFT=0 RY=LonI:"2" RX=Real:"123.4":DEG
Out: EC=0 FL_CPXRES=0 FL_ASLIFT=1 RL=Real:"123.4":DEG RX=Real:"1.314444444444444444444444444444444":MULTPI

In:  AM=DEG FL_CPXRES=0 FL_ASLIFT=0 RY=LonI:"2" RX=Real:"123.453099":DMS
Out: EC=0 FL_CPXRES=0 FL_ASLIFT=1 RL=Real:"123.453099":DMS RX=Real:"-121.453099":DEG

In:  AM=DMS FL_CPXRES=0 FL_ASLIFT=0 RY=LonI:"2" RX=Real:"123.453099":DMS
Out: EC=0 FL_CPXRES=0 FL_ASLIFT=1 RL=Real:"123.453099":DMS RX=Real:"-121.453099":DMS

In:  AM=GRAD FL_CPXRES=0 FL_ASLIFT=0 RY=LonI:"2" RX=Real:"123.453099":DMS
Out: EC=0 FL_CPXRES=0 FL_ASLIFT=1 RL=Real:"123.453099":DMS RX=Real:"-135.17011":GRAD

In:  AM=RAD FL_CPXRES=0 FL_ASLIFT=0 RY=LonI:"2" RX=Real:"123.453099":DMS
Out: EC=0 FL_CPXRES=0 FL_ASLIFT=1 RL=Real:"123.453099":DMS RX=Real:"-0.15466304934051916698588511887610785685321494100458598362386729":RAD

In:  AM=MULTPI FL_CPXRES=0 FL_ASLIFT=0 RY=LonI:"2" RX=Real:"123.453099":DMS
Out: EC=0 FL_CPXRES=0 FL_ASLIFT=1 RL=Real:"123.453099":DMS RX=Real:"1.31414945":MULTPI

In:  AM=DEG FL_CPXRES=0 FL_ASLIFT=0 RY=LonI:"2" RX=Real:"123.453099":GRAD
Out: EC=0 FL_CPXRES=0 FL_ASLIFT=1 RL=Real:"123.453099":GRAD RX=Real:"-109.1077891":DEG

In:  AM=DMS FL_CPXRES=0 FL_ASLIFT=0 RY=LonI:"2" RX=Real:"123.453099":GRAD
Out: EC=0 FL_CPXRES=0 FL_ASLIFT=1 RL=Real:"123.453099":GRAD RX=Real:"-109.1077891":DMS

In:  AM=GRAD FL_CPXRES=0 FL_ASLIFT=0 RY=LonI:"2" RX=Real:"123.453099":GRAD
Out: EC=0 FL_CPXRES=0 FL_ASLIFT=1 RL=Real:"123.453099":GRAD RX=Real:"-121.453099":GRAD

In:  AM=RAD FL_CPXRES=0 FL_ASLIFT=0 RY=LonI:"2" RX=Real:"123.453099":GRAD
Out: EC=0 FL_CPXRES=0 FL_ASLIFT=1 RL=Real:"123.453099":GRAD RX=Real:"0.06080325559353274971270339301150292883210655309587261473851944":RAD

In:  AM=MULTPI FL_CPXRES=0 FL_ASLIFT=0 RY=LonI:"2" RX=Real:"123.453099":GRAD
Out: EC=0 FL_CPXRES=0 FL_ASLIFT=1 RL=Real:"123.453099":GRAD RX=Real:"1.382734505":MULTPI

In:  AM=DEG FL_CPXRES=0 FL_ASLIFT=0 RY=LonI:"2" RX=Real:"3.453099789":RAD
Out: EC=0 FL_CPXRES=0 FL_ASLIFT=1 RL=Real:"3.453099789":RAD RX=Real:"-195.84804414721508495930200338417589789863839683673856829633339":DEG

In:  AM=DMS FL_CPXRES=0 FL_ASLIFT=0 RY=LonI:"2" RX=Real:"3.453099789":RAD
Out: EC=0 FL_CPXRES=0 FL_ASLIFT=1 RL=Real:"3.453099789":RAD RX=Real:"-195.84804414721508495930200338417589789863839683673856829633339":DMS

In:  AM=GRAD FL_CPXRES=0 FL_ASLIFT=0 RY=LonI:"2" RX=Real:"3.453099789":RAD
Out: EC=0 FL_CPXRES=0 FL_ASLIFT=1 RL=Real:"3.453099789":RAD RX=Real:"-217.83116016357231662144667042686210877626488537415396477370377":GRAD

In:  AM=RAD FL_CPXRES=0 FL_ASLIFT=0 RY=LonI:"2" RX=Real:"3.453099789":RAD
Out: EC=0 FL_CPXRES=0 FL_ASLIFT=1 RL=Real:"3.453099789":RAD RX=Real:"-1.453099789":RAD

In:  AM=MULTPI FL_CPXRES=0 FL_ASLIFT=0 RY=LonI:"2" RX=Real:"3.453099789":RAD
Out: EC=0 FL_CPXRES=0 FL_ASLIFT=1 RL=Real:"3.453099789":RAD RX=Real:"0.9008441991821384168927666478656895":MULTPI

In:  AM=DEG FL_CPXRES=0 FL_ASLIFT=0 RY=LonI:"2" RX=Real:"3.453099789":MULTPI
Out: EC=0 FL_CPXRES=0 FL_ASLIFT=1 RL=Real:"3.453099789":MULTPI RX=Real:"-619.55796202":DEG

In:  AM=DMS FL_CPXRES=0 FL_ASLIFT=0 RY=LonI:"2" RX=Real:"3.453099789":MULTPI
Out: EC=0 FL_CPXRES=0 FL_ASLIFT=1 RL=Real:"3.453099789":MULTPI RX=Real:"-619.55796202":DMS

In:  AM=GRAD FL_CPXRES=0 FL_ASLIFT=0 RY=LonI:"2" RX=Real:"3.453099789":MULTPI
Out: EC=0 FL_CPXRES=0 FL_ASLIFT=1 RL=Real:"3.453099789":MULTPI RX=Real:"-688.6199578":GRAD

In:  AM=RAD FL_CPXRES=0 FL_ASLIFT=0 RY=LonI:"2" RX=Real:"3.453099789":MULTPI
Out: EC=0 FL_CPXRES=0 FL_ASLIFT=1 RL=Real:"3.453099789":MULTPI RX=Real:"-8.848232929234865124288980551184698":RAD

In:  AM=MULTPI FL_CPXRES=0 FL_ASLIFT=0 RY=LonI:"2" RX=Real:"3.453099789":MULTPI
Out: EC=0 FL_CPXRES=0 FL_ASLIFT=1 RL=Real:"3.453099789":MULTPI RX=Real:"-1.453099789":MULTPI

;=======================================
; Real - Long Integer --> Real
;=======================================
In:  FL_ASLIFT=0 FL_CPXRES=0 RY=Real:"123.456" RX=LonI:"12545543120284569505847489630102030405"
Out: EC=0 FL_CPXRES=0 FL_ASLIFT=1 RL=LonI:"12545543120284569505847489630102030405" RX=Real:"-12545543120284569505847489630102030281.544"

; Correct rounding test
In:  FL_ASLIFT=0 RY=Real:"-1000000000000000000000000000000456.0" RX=LonI:"10000000000000000000000000000004567"
Out: EC=0 FL_CPXRES=0 FL_ASLIFT=1 RL=LonI:"10000000000000000000000000000004567" RX=Real:"-11000000000000000000000000000005023.0"

In:  AM=DEG FL_CPXRES=0 FL_ASLIFT=0 RY=Real:"123.4":DEG RX=LonI:"2"
Out: EC=0 FL_CPXRES=0 FL_ASLIFT=1 RL=LonI:"2" RX=Real:"121.4":DEG

In:  AM=DMS FL_CPXRES=0 FL_ASLIFT=0 RY=Real:"123.4":DEG RX=LonI:"2"
Out: EC=0 FL_CPXRES=0 FL_ASLIFT=1 RL=LonI:"2" RX=Real:"121.4":DMS

In:  AM=GRAD FL_CPXRES=0 FL_ASLIFT=0 RY=Real:"123.4":DEG RX=LonI:"2"
Out: EC=0 FL_CPXRES=0 FL_ASLIFT=1 RL=LonI:"2" RX=Real:"135.11111111111111111111111111111111111111111111111111111111111":GRAD

In:  AM=RAD FL_CPXRES=0 FL_ASLIFT=0 RY=Real:"123.4":DEG RX=LonI:"2"
Out: EC=0 FL_CPXRES=0 FL_ASLIFT=1 RL=LonI:"2" RX=Real:"0.1537362969610026979238344083149480883885039104604892128239342":RAD

In:  AM=MULTPI FL_CPXRES=0 FL_ASLIFT=0 RY=Real:"123.4":DEG RX=LonI:"2"
Out: EC=0 FL_CPXRES=0 FL_ASLIFT=1 RL=LonI:"2" RX=Real:"-1.314444444444444444444444444444444":MULTPI

In:  AM=DEG FL_CPXRES=0 FL_ASLIFT=0 RY=Real:"123.453099":DMS RX=LonI:"2"
Out: EC=0 FL_CPXRES=0 FL_ASLIFT=1 RL=LonI:"2" RX=Real:"121.453099":DEG

In:  AM=DMS FL_CPXRES=0 FL_ASLIFT=0 RY=Real:"123.453099":DMS RX=LonI:"2"
Out: EC=0 FL_CPXRES=0 FL_ASLIFT=1 RL=LonI:"2" RX=Real:"121.453099":DMS

In:  AM=GRAD FL_CPXRES=0 FL_ASLIFT=0 RY=Real:"123.453099":DMS RX=LonI:"2"
Out: EC=0 FL_CPXRES=0 FL_ASLIFT=1 RL=LonI:"2" RX=Real:"135.17011":GRAD

In:  AM=RAD FL_CPXRES=0 FL_ASLIFT=0 RY=Real:"123.453099":DMS RX=LonI:"2"
Out: EC=0 FL_CPXRES=0 FL_ASLIFT=1 RL=LonI:"2" RX=Real:"0.15466304934051916698588511887610785685321494100458598362386729":RAD

In:  AM=MULTPI FL_CPXRES=0 FL_ASLIFT=0 RY=Real:"123.453099":DMS RX=LonI:"2"
Out: EC=0 FL_CPXRES=0 FL_ASLIFT=1 RL=LonI:"2" RX=Real:"-1.31414945":MULTPI

In:  AM=DEG FL_CPXRES=0 FL_ASLIFT=0 RY=Real:"123.453099":GRAD RX=LonI:"2"
Out: EC=0 FL_CPXRES=0 FL_ASLIFT=1 RL=LonI:"2" RX=Real:"109.1077891":DEG

In:  AM=DMS FL_CPXRES=0 FL_ASLIFT=0 RY=Real:"123.453099":GRAD RX=LonI:"2"
Out: EC=0 FL_CPXRES=0 FL_ASLIFT=1 RL=LonI:"2" RX=Real:"109.1077891":DMS

In:  AM=GRAD FL_CPXRES=0 FL_ASLIFT=0 RY=Real:"123.453099":GRAD RX=LonI:"2"
Out: EC=0 FL_CPXRES=0 FL_ASLIFT=1 RL=LonI:"2" RX=Real:"121.453099":GRAD

In:  AM=RAD FL_CPXRES=0 FL_ASLIFT=0 RY=Real:"123.453099":GRAD RX=LonI:"2"
Out: EC=0 FL_CPXRES=0 FL_ASLIFT=1 RL=LonI:"2" RX=Real:"-0.06080325559353274971270339301150292883210655309587261473851944":RAD

In:  AM=MULTPI FL_CPXRES=0 FL_ASLIFT=0 RY=Real:"123.453099":GRAD RX=LonI:"2"
Out: EC=0 FL_CPXRES=0 FL_ASLIFT=1 RL=LonI:"2" RX=Real:"-1.382734505":MULTPI

In:  AM=DEG FL_CPXRES=0 FL_ASLIFT=0 RY=Real:"3.453099789":RAD RX=LonI:"2"
Out: EC=0 FL_CPXRES=0 FL_ASLIFT=1 RL=LonI:"2" RX=Real:"195.84804414721508495930200338417589789863839683673856829633339":DEG

In:  AM=DMS FL_CPXRES=0 FL_ASLIFT=0 RY=Real:"3.453099789":RAD RX=LonI:"2"
Out: EC=0 FL_CPXRES=0 FL_ASLIFT=1 RL=LonI:"2" RX=Real:"195.84804414721508495930200338417589789863839683673856829633339":DMS

In:  AM=GRAD FL_CPXRES=0 FL_ASLIFT=0 RY=Real:"3.453099789":RAD RX=LonI:"2"
Out: EC=0 FL_CPXRES=0 FL_ASLIFT=1 RL=LonI:"2" RX=Real:"217.83116016357231662144667042686210877626488537415396477370377":GRAD

In:  AM=RAD FL_CPXRES=0 FL_ASLIFT=0 RY=Real:"3.453099789":RAD RX=LonI:"2"
Out: EC=0 FL_CPXRES=0 FL_ASLIFT=1 RL=LonI:"2" RX=Real:"1.453099789":RAD

In:  AM=MULTPI FL_CPXRES=0 FL_ASLIFT=0 RY=Real:"3.453099789":RAD RX=LonI:"2"
Out: EC=0 FL_CPXRES=0 FL_ASLIFT=1 RL=LonI:"2" RX=Real:"-0.9008441991821384168927666478656895":MULTPI

In:  AM=DEG FL_CPXRES=0 FL_ASLIFT=0 RY=Real:"3.453099789":MULTPI RX=LonI:"2"
Out: EC=0 FL_CPXRES=0 FL_ASLIFT=1 RL=LonI:"2" RX=Real:"619.55796202":DEG

In:  AM=DMS FL_CPXRES=0 FL_ASLIFT=0 RY=Real:"3.453099789":MULTPI RX=LonI:"2"
Out: EC=0 FL_CPXRES=0 FL_ASLIFT=1 RL=LonI:"2" RX=Real:"619.55796202":DMS

In:  AM=GRAD FL_CPXRES=0 FL_ASLIFT=0 RY=Real:"3.453099789":MULTPI RX=LonI:"2"
Out: EC=0 FL_CPXRES=0 FL_ASLIFT=1 RL=LonI:"2" RX=Real:"688.6199578":GRAD

In:  AM=RAD FL_CPXRES=0 FL_ASLIFT=0 RY=Real:"3.453099789":MULTPI RX=LonI:"2"
Out: EC=0 FL_CPXRES=0 FL_ASLIFT=1 RL=LonI:"2" RX=Real:"8.848232929234865124288980551184698":RAD

In:  AM=MULTPI FL_CPXRES=0 FL_ASLIFT=0 RY=Real:"3.453099789":MULTPI RX=LonI:"2"
Out: EC=0 FL_CPXRES=0 FL_ASLIFT=1 RL=LonI:"2" RX=Real:"1.453099789":MULTPI



;=======================================
; Long Integer - Complex --> Complex
;=======================================
In:  FL_ASLIFT=0 FL_CPXRES=0 RY=LonI:"12540" RX=Cplx:"123.456 i -6.78"
Out: EC=0 FL_CPXRES=1 FL_ASLIFT=1 RL=Cplx:"123.456 i -6.78" RX=Cplx:"12416.544 i 6.78"

; Correct rounding test
In:  FL_ASLIFT=0 RY=LonI:"-10000000000000000000000000000004567" RX=Cplx:"1000000000000000000000000000000456.0 i 3"
Out: EC=0 FL_CPXRES=1 FL_ASLIFT=1 RL=Cplx:"1000000000000000000000000000000456.0 i 3" RX=Cplx:"-11000000000000000000000000000005023.0 i -3"

;=======================================
; Complex - Long Integer --> Complex
;=======================================
In:  FL_ASLIFT=0 FL_CPXRES=0 RY=Cplx:"123.456 i -6.78" RX=LonI:"12540"
Out: EC=0 FL_CPXRES=1 FL_ASLIFT=1 RL=LonI:"12540" RX=Cplx:"-12416.544 i -6.78"

; Correct rounding test
In:  FL_ASLIFT=0 RY=Cplx:"-1000000000000000000000000000000456.0 i -5" RX=LonI:"10000000000000000000000000000004567"
Out: EC=0 FL_CPXRES=1 FL_ASLIFT=1 RL=LonI:"10000000000000000000000000000004567" RX=Cplx:"-11000000000000000000000000000005023.0 i -5"
