;*************************************************************
;*************************************************************
;**                                                         **
;**               CDF of Weibull distribution               **
;**                                                         **
;*************************************************************
;*************************************************************
In: FL_SPCRES=0 FL_CPXRES=0 SD=0 RMODE=0 IM=2compl SS=4 WS=64
Func: fnWeibullL



;=======================================
; WeibullL(Long Integer) --> LonI34
;=======================================
In:  AM=DEG FL_ASLIFT=0 FL_CPXRES=0 RS=LonI:"1" RQ=LonI:"1" RX=LonI:"0"
Out: EC=0 FL_CPXRES=0 FL_ASLIFT=1 RL=LonI:"0" RX=Real:"0"

In:  AM=DEG FL_ASLIFT=0 FL_CPXRES=0 RS=LonI:"1" RQ=LonI:"1" RX=LonI:"1"
Out: EC=0 FL_CPXRES=0 FL_ASLIFT=1 RL=LonI:"1" RX=Real:"0.6321205588285576784044762298385391"

In:  AM=DEG FL_ASLIFT=0 FL_CPXRES=0 RS=LonI:"1" RQ=LonI:"1" RX=LonI:"2"
Out: EC=0 FL_CPXRES=0 FL_ASLIFT=1 RL=LonI:"2" RX=Real:"0.8646647167633873081060005050275156"

In:  AM=DEG FL_ASLIFT=0 FL_CPXRES=0 RS=LonI:"1" RQ=LonI:"1" RX=LonI:"3"
Out: EC=0 FL_CPXRES=0 FL_ASLIFT=1 RL=LonI:"3" RX=Real:"0.9502129316321360570206575843499382"

In:  AM=DEG FL_ASLIFT=0 FL_CPXRES=0 RS=LonI:"2" RQ=LonI:"1" RX=LonI:"2"
Out: EC=0 FL_CPXRES=0 FL_ASLIFT=1 RL=LonI:"2" RX=Real:"0.6321205588285576784044762298385391"


In:  AM=DEG FL_ASLIFT=0 FL_CPXRES=0 RS=LonI:"1" RQ=LonI:"2" RX=LonI:"0"
Out: EC=0 FL_CPXRES=0 FL_ASLIFT=1 RL=LonI:"0" RX=Real:"0"

In:  AM=DEG FL_ASLIFT=0 FL_CPXRES=0 RS=LonI:"1" RQ=LonI:"2" RX=LonI:"1"
Out: EC=0 FL_CPXRES=0 FL_ASLIFT=1 RL=LonI:"1" RX=Real:"0.6321205588285576784044762298385391"

In:  AM=DEG FL_ASLIFT=0 FL_CPXRES=0 RS=LonI:"1" RQ=LonI:"2" RX=LonI:"2"
Out: EC=0 FL_CPXRES=0 FL_ASLIFT=1 RL=LonI:"2" RX=Real:"0.9816843611112658197062819787267588"

In:  AM=DEG FL_ASLIFT=0 FL_CPXRES=0 RS=LonI:"1" RQ=LonI:"2" RX=LonI:"3"
Out: EC=0 FL_CPXRES=0 FL_ASLIFT=1 RL=LonI:"3" RX=Real:"0.9998765901959133204505023633092700"

In:  AM=DEG FL_ASLIFT=0 FL_CPXRES=0 RS=LonI:"2" RQ=LonI:"2" RX=LonI:"2"
Out: EC=0 FL_CPXRES=0 FL_ASLIFT=1 RL=LonI:"2" RX=Real:"0.6321205588285576784044762298385391"


In:  AM=DEG FL_ASLIFT=0 FL_CPXRES=0 RS=LonI:"1" RQ=Real:"0.5" RX=LonI:"0"
Out: EC=0 FL_CPXRES=0 FL_ASLIFT=1 RL=LonI:"0" RX=Real:"0"

In:  AM=DEG FL_ASLIFT=0 FL_CPXRES=0 RS=LonI:"1" RQ=Real:"0.5" RX=LonI:"1"
Out: EC=0 FL_CPXRES=0 FL_ASLIFT=1 RL=LonI:"1" RX=Real:"0.6321205588285576784044762298385391"

In:  AM=DEG FL_ASLIFT=0 FL_CPXRES=0 RS=LonI:"1" RQ=Real:"0.5" RX=LonI:"2"
Out: EC=0 FL_CPXRES=0 FL_ASLIFT=1 RL=LonI:"2" RX=Real:"0.7568832655657857891951376795000539"

In:  AM=DEG FL_ASLIFT=0 FL_CPXRES=0 RS=LonI:"1" RQ=Real:"0.5" RX=LonI:"3"
Out: EC=0 FL_CPXRES=0 FL_ASLIFT=1 RL=LonI:"3" RX=Real:"0.8230787936822357954130776014031772"

In:  AM=DEG FL_ASLIFT=0 FL_CPXRES=0 RS=LonI:"2" RQ=Real:"0.5" RX=LonI:"2"
Out: EC=0 FL_CPXRES=0 FL_ASLIFT=1 RL=LonI:"2" RX=Real:"0.6321205588285576784044762298385391"



;=======================================
; WeibullL(Time) --> Error24
;=======================================



;=======================================
; WeibullL(Date) --> Error24
;=======================================



;=======================================
; WeibullL(String) --> Error24
;=======================================
In:  FL_ASLIFT=0 RX=Stri:"String test"
Out: EC=24 FL_ASLIFT=0 RX=Stri:"String test"



;=======================================
; WeibullL(LonI16 Matrix) --> Error24
;=======================================



;=======================================
; WeibullL(Complex Matrix) --> Error24
;=======================================



;=======================================
; WeibullL(Short Integer) --> Error24
;=======================================



;=======================================
; WeibullL(Real) --> Real
;=======================================
In:  AM=DEG FL_ASLIFT=0 FL_CPXRES=0 RS=Real:"1" RQ=Real:"1" RX=Real:"0"
Out: EC=0 FL_CPXRES=0 FL_ASLIFT=1 RL=Real:"0" RX=Real:"0"

In:  AM=DEG FL_ASLIFT=0 FL_CPXRES=0 RS=Real:"1" RQ=Real:"1" RX=Real:"1"
Out: EC=0 FL_CPXRES=0 FL_ASLIFT=1 RL=Real:"1" RX=Real:"0.6321205588285576784044762298385391"

In:  AM=DEG FL_ASLIFT=0 FL_CPXRES=0 RS=Real:"1" RQ=Real:"1" RX=Real:"2"
Out: EC=0 FL_CPXRES=0 FL_ASLIFT=1 RL=Real:"2" RX=Real:"0.8646647167633873081060005050275156"

In:  AM=DEG FL_ASLIFT=0 FL_CPXRES=0 RS=Real:"1" RQ=Real:"1" RX=Real:"3"
Out: EC=0 FL_CPXRES=0 FL_ASLIFT=1 RL=Real:"3" RX=Real:"0.9502129316321360570206575843499382"

In:  AM=DEG FL_ASLIFT=0 FL_CPXRES=0 RS=Real:"2" RQ=Real:"1" RX=Real:"2"
Out: EC=0 FL_CPXRES=0 FL_ASLIFT=1 RL=Real:"2" RX=Real:"0.6321205588285576784044762298385391"


In:  AM=DEG FL_ASLIFT=0 FL_CPXRES=0 RS=Real:"1" RQ=Real:"2" RX=Real:"0"
Out: EC=0 FL_CPXRES=0 FL_ASLIFT=1 RL=Real:"0" RX=Real:"0"

In:  AM=DEG FL_ASLIFT=0 FL_CPXRES=0 RS=Real:"1" RQ=Real:"2" RX=Real:"1"
Out: EC=0 FL_CPXRES=0 FL_ASLIFT=1 RL=Real:"1" RX=Real:"0.6321205588285576784044762298385391"

In:  AM=DEG FL_ASLIFT=0 FL_CPXRES=0 RS=Real:"1" RQ=Real:"2" RX=Real:"2"
Out: EC=0 FL_CPXRES=0 FL_ASLIFT=1 RL=Real:"2" RX=Real:"0.9816843611112658197062819787267588"

In:  AM=DEG FL_ASLIFT=0 FL_CPXRES=0 RS=Real:"1" RQ=Real:"2" RX=Real:"3"
Out: EC=0 FL_CPXRES=0 FL_ASLIFT=1 RL=Real:"3" RX=Real:"0.9998765901959133204505023633092700"

In:  AM=DEG FL_ASLIFT=0 FL_CPXRES=0 RS=Real:"2" RQ=Real:"2" RX=Real:"2"
Out: EC=0 FL_CPXRES=0 FL_ASLIFT=1 RL=Real:"2" RX=Real:"0.6321205588285576784044762298385391"


In:  AM=DEG FL_ASLIFT=0 FL_CPXRES=0 RS=Real:"1" RQ=Real:"0.5" RX=Real:"0"
Out: EC=0 FL_CPXRES=0 FL_ASLIFT=1 RL=Real:"0" RX=Real:"0"

In:  AM=DEG FL_ASLIFT=0 FL_CPXRES=0 RS=Real:"1" RQ=Real:"0.5" RX=Real:"1"
Out: EC=0 FL_CPXRES=0 FL_ASLIFT=1 RL=Real:"1" RX=Real:"0.6321205588285576784044762298385391"

In:  AM=DEG FL_ASLIFT=0 FL_CPXRES=0 RS=Real:"1" RQ=Real:"0.5" RX=Real:"2"
Out: EC=0 FL_CPXRES=0 FL_ASLIFT=1 RL=Real:"2" RX=Real:"0.7568832655657857891951376795000539"

In:  AM=DEG FL_ASLIFT=0 FL_CPXRES=0 RS=Real:"1" RQ=Real:"0.5" RX=Real:"3"
Out: EC=0 FL_CPXRES=0 FL_ASLIFT=1 RL=Real:"3" RX=Real:"0.8230787936822357954130776014031772"

In:  AM=DEG FL_ASLIFT=0 FL_CPXRES=0 RS=Real:"2" RQ=Real:"0.5" RX=Real:"2"
Out: EC=0 FL_CPXRES=0 FL_ASLIFT=1 RL=Real:"2" RX=Real:"0.6321205588285576784044762298385391"



;=======================================
; WeibullL(Complex) --> Error24
;=======================================
